OBJECT Codeunit 1316 Top Ten Customers Chart Mgt.
{
  OBJECT-PROPERTIES
  {
    Date=25/10/16;
    Time=12:00:00;
    Version List=NAVW110.0;
  }
  PROPERTIES
  {
    OnRun=BEGIN
          END;

  }
  CODE
  {
    VAR
      CustomerXCaptionTxt@1002 : TextConst 'ENU=Customer Name;PTG=Nome do Cliente';
      SalesLCYYCaptionTxt@1001 : TextConst 'ENU=Sales (LCY);PTG=Sales';
      AllOtherCustomersTxt@1000 : TextConst 'ENU=All Other Customers;PTG=Todos os Outros Clientes.';

    PROCEDURE UpdateChart@3(VAR BusChartBuf@1000 : Record 485);
    VAR
      ColumnIndex@1003 : Integer;
      CustomerName@1002 : ARRAY [11] OF Text[50];
      SalesLCY@1001 : ARRAY [11] OF Decimal;
    BEGIN
      WITH BusChartBuf DO BEGIN
        Initialize;
        AddMeasure(SalesLCYYCaptionTxt,1,"Data Type"::Decimal,"Chart Type"::StackedColumn);
        SetXAxis(CustomerXCaptionTxt,"Data Type"::String);
        CalcTopTenSalesCustomers(CustomerName,SalesLCY);
        FOR ColumnIndex := 1 TO 11 DO BEGIN
          AddColumn(CustomerName[ColumnIndex]);
          SetValueByIndex(0,ColumnIndex - 1,SalesLCY[ColumnIndex]);
        END;
      END;
    END;

    PROCEDURE DrillDown@5(VAR BusChartBuf@1000 : Record 485);
    VAR
      CustomerName@1001 : Variant;
    BEGIN
      BusChartBuf.GetXValue(BusChartBuf."Drill-Down X Index",CustomerName);
      // drill down only for top 10 customers
      // for the 11th column "all other customers", it drills down to customer list of all other customers
      IF (BusChartBuf."Drill-Down Measure Index" = 0) AND (BusChartBuf."Drill-Down X Index" < 10) THEN
        DrillDownCust(FORMAT(CustomerName));
      IF (BusChartBuf."Drill-Down Measure Index" = 0) AND (BusChartBuf."Drill-Down X Index" = 10) THEN
        DrillDownOtherCustList;
    END;

    LOCAL PROCEDURE CalcTopTenSalesCustomers@9(VAR CustomerName@1002 : ARRAY [11] OF Text[50];VAR SalesLCY@1000 : ARRAY [11] OF Decimal);
    VAR
      Customer@1003 : Record 18;
      ColumnIndex@1001 : Integer;
    BEGIN
      ColumnIndex := 1;
      Customer.CALCFIELDS("Sales (LCY)");
      Customer.SETCURRENTKEY("Sales (LCY)");
      Customer.ASCENDING(FALSE);
      WITH Customer DO BEGIN
        IF FIND('-') THEN
          REPEAT
            // Return Sales (LCY) for top 10 customer, and as 11th measure - the sum of Sales (LCY) for all other customers
            IF ColumnIndex <= 10 THEN BEGIN
              CustomerName[ColumnIndex] := Name;
              SalesLCY[ColumnIndex] := "Sales (LCY)";
            END ELSE
              SalesLCY[11] += "Sales (LCY)";
            ColumnIndex := ColumnIndex + 1;
          UNTIL NEXT = 0;
        CustomerName[11] := AllOtherCustomersTxt;
      END;
    END;

    LOCAL PROCEDURE DrillDownCust@1(DrillDownName@1000 : Text[50]);
    VAR
      Customer@1001 : Record 18;
    BEGIN
      Customer.SETRANGE(Name,DrillDownName);
      Customer.FINDFIRST;
      PAGE.RUN(PAGE::"Customer Card",Customer);
    END;

    LOCAL PROCEDURE DrillDownOtherCustList@8();
    VAR
      Customer@1001 : Record 18;
    BEGIN
      Customer.SETFILTER("No.",GetFilterToExcludeTopTenCustomers);
      Customer.SETCURRENTKEY(Name);
      Customer.ASCENDING(TRUE);
      PAGE.RUN(PAGE::"Customer List",Customer);
    END;

    LOCAL PROCEDURE GetFilterToExcludeTopTenCustomers@11() : Text;
    VAR
      Customer@1002 : Record 18;
      CustomerCounter@1001 : Integer;
      FilterToExcludeTopTenCustomers@1000 : Text;
    BEGIN
      CustomerCounter := 1;
      Customer.CALCFIELDS("Sales (LCY)");
      Customer.SETCURRENTKEY("Sales (LCY)");
      Customer.ASCENDING(FALSE);
      WITH Customer DO BEGIN
        IF FIND('-') THEN
          REPEAT
            IF CustomerCounter = 1 THEN
              FilterToExcludeTopTenCustomers := STRSUBSTNO('<>%1',"No.")
            ELSE
              FilterToExcludeTopTenCustomers += STRSUBSTNO('&<>%1',"No.");
            CustomerCounter := CustomerCounter + 1;
          UNTIL (NEXT = 0) OR (CustomerCounter = 11);
      END;
      EXIT(FilterToExcludeTopTenCustomers);
    END;

    BEGIN
    END.
  }
}

