OBJECT Codeunit 1271 Exp. Data Handling Gen. Jnl.
{
  OBJECT-PROPERTIES
  {
    Date=09/09/14;
    Time=12:00:00;
    Version List=NAVW18.00;
  }
  PROPERTIES
  {
    TableNo=81;
    Permissions=TableData 81=rimd;
    OnRun=BEGIN
          END;

  }
  CODE
  {

    BEGIN
    END.
  }
}

