OBJECT Codeunit 1702 Exp. Pre-Mapping Head Pos. Pay
{
  OBJECT-PROPERTIES
  {
    Date=15/09/15;
    Time=12:00:00;
    Version List=NAVW19.00;
  }
  PROPERTIES
  {
    OnRun=BEGIN
          END;

  }
  CODE
  {

    BEGIN
    END.
  }
}

