OBJECT Codeunit 1421 Doc. Exch. Serv. - Recv. Docs.
{
  OBJECT-PROPERTIES
  {
    Date=15/09/15;
    Time=12:00:00;
    Version List=NAVW19.00;
  }
  PROPERTIES
  {
    OnRun=VAR
            DocExchServiceSetup@1001 : Record 1275;
            DocExchServiceMgt@1000 : Codeunit 1410;
          BEGIN
            DocExchServiceSetup.GET;
            DocExchServiceMgt.ReceiveDocuments(DocExchServiceSetup.RECORDID);
          END;

  }
  CODE
  {

    BEGIN
    END.
  }
}

