OBJECT Codeunit 574 Run Acc. Sched. CashFlow Stmt.
{
  OBJECT-PROPERTIES
  {
    Date=25/10/16;
    Time=12:00:00;
    Version List=NAVW110.0;
  }
  PROPERTIES
  {
    OnRun=VAR
            GeneralLedgerSetup@1000 : Record 98;
            GLAccountCategoryMgt@1002 : Codeunit 570;
          BEGIN
            GLAccountCategoryMgt.GetGLSetup(GeneralLedgerSetup);
            GLAccountCategoryMgt.RunAccountScheduleReport(GeneralLedgerSetup."Acc. Sched. for Cash Flow Stmt");
          END;

  }
  CODE
  {

    BEGIN
    END.
  }
}

