OBJECT Codeunit 842 Cash Flow Forecast Update
{
  OBJECT-PROPERTIES
  {
    Date=25/10/16;
    Time=12:00:00;
    Version List=NAVW110.0;
  }
  PROPERTIES
  {
    OnRun=VAR
            CashFlowSetup@1002 : Record 843;
            CashFlowManagement@1000 : Codeunit 841;
            OriginalWorkDate@1001 : Date;
          BEGIN
            RemoveScheduledTaskIfUserInactive;

            OriginalWorkDate := WORKDATE;
            WORKDATE := LogInManagement.GetDefaultWorkDate;
            IF CashFlowSetup.GET THEN
              CashFlowManagement.UpdateCashFlowForecast(CashFlowSetup."Cortana Intelligence Enabled");
            WORKDATE := OriginalWorkDate;
          END;

  }
  CODE
  {
    VAR
      LogInManagement@1000 : Codeunit 40;

    LOCAL PROCEDURE RemoveScheduledTaskIfUserInactive@1();
    VAR
      CashFlowManagement@1000 : Codeunit 841;
      PeriodType@1002 : 'Day,Week,Month,Quarter,Year,Accounting Period';
    BEGIN
      IF NOT LogInManagement.UserLogonExistsWithinPeriod(PeriodType::Week,2) THEN
        CashFlowManagement.DeleteJobQueueEntries;
    END;

    BEGIN
    END.
  }
}

