OBJECT Codeunit 9900 Data Upgrade Mgt.
{
  OBJECT-PROPERTIES
  {
    Date=15/09/15;
    Time=12:00:00;
    Version List=NAVW19.00;
  }
  PROPERTIES
  {
    OnRun=BEGIN
          END;

  }
  CODE
  {

    PROCEDURE SetTableSyncSetup@6(TableId@1000 : Integer;UpgradeTableId@1001 : Integer;TableUpgradeMode@1002 : 'Check,Copy,Move,Force');
    VAR
      TableSynchSetup@1003 : Record 2000000135;
    BEGIN
      IF TableSynchSetup.GET(TableId) THEN BEGIN
        TableSynchSetup."Upgrade Table ID" := UpgradeTableId;
        TableSynchSetup.Mode := TableUpgradeMode;
        TableSynchSetup.MODIFY;
      END;
    END;

    BEGIN
    END.
  }
}

