OBJECT Codeunit 9001 Permission Pages Mgt.
{
  OBJECT-PROPERTIES
  {
    Date=15/09/15;
    Time=12:00:00;
    Version List=NAVW19.00;
  }
  PROPERTIES
  {
    OnRun=BEGIN
          END;

  }
  CODE
  {
    VAR
      NoOfRecords@1001 : Integer;
      NoOfColumns@1000 : Integer;
      OffSet@1002 : Integer;

    PROCEDURE Init@2(NewNoOfRecords@1000 : Integer;NewNoOfColumns@1001 : Integer);
    BEGIN
      OffSet := 0;
      NoOfRecords := NewNoOfRecords;
      NoOfColumns := NewNoOfColumns;
    END;

    PROCEDURE GetOffset@3() : Integer;
    BEGIN
      EXIT(OffSet);
    END;

    PROCEDURE AllColumnsLeft@8();
    BEGIN
      OffSet -= NoOfColumns;
      IF OffSet < 0 THEN
        OffSet := 0;
    END;

    PROCEDURE ColumnLeft@9();
    BEGIN
      IF OffSet > 0 THEN
        OffSet -= 1;
    END;

    PROCEDURE ColumnRight@10();
    BEGIN
      IF OffSet < NoOfRecords - NoOfColumns THEN
        OffSet += 1;
    END;

    PROCEDURE AllColumnsRight@11();
    BEGIN
      OffSet += NoOfColumns;
      IF OffSet > NoOfRecords - NoOfColumns THEN
        OffSet := NoOfRecords - NoOfColumns;
      IF OffSet < 0 THEN
        OffSet := 0;
    END;

    PROCEDURE IsInColumnsRange@12(i@1000 : Integer) : Boolean;
    BEGIN
      EXIT((i > OffSet) AND (i <= OffSet + NoOfColumns));
    END;

    PROCEDURE IsPastColumnRange@6(i@1000 : Integer) : Boolean;
    BEGIN
      EXIT(i >= OffSet + NoOfColumns);
    END;

    BEGIN
    END.
  }
}

