OBJECT Codeunit 99000812 PlanningWkshManagement
{
  OBJECT-PROPERTIES
  {
    Date=25/10/16;
    Time=12:00:00;
    Version List=NAVW110.0;
  }
  PROPERTIES
  {
    OnRun=BEGIN
          END;

  }
  CODE
  {
    VAR
      LastReqLine@1006 : Record 246;

    PROCEDURE SetName@5(CurrentWkshBatchName@1000 : Code[10];VAR ReqLine@1001 : Record 246);
    BEGIN
      ReqLine.FILTERGROUP(2);
      ReqLine.SETRANGE("Journal Batch Name",CurrentWkshBatchName);
      ReqLine.FILTERGROUP(0);
      IF ReqLine.FIND('-') THEN;
    END;

    PROCEDURE GetDescriptionAndRcptName@7(VAR ReqLine@1000 : Record 246;VAR ItemDescription@1001 : Text[50];VAR RoutingDescription@1002 : Text[50]);
    VAR
      Item@1003 : Record 27;
      RtngHeader@1004 : Record 99000763;
    BEGIN
      IF ReqLine."No." = '' THEN
        ItemDescription := ''
      ELSE
        IF ReqLine."No." <> LastReqLine."No." THEN BEGIN
          IF Item.GET(ReqLine."No.") THEN
            ItemDescription := Item.Description
          ELSE
            ItemDescription := '';
        END;

      IF ReqLine."Routing No." = '' THEN
        RoutingDescription := ''
      ELSE
        IF ReqLine."Routing No." <> LastReqLine."Routing No." THEN BEGIN
          IF RtngHeader.GET(ReqLine."Routing No.") THEN
            RoutingDescription := RtngHeader.Description
          ELSE
            RoutingDescription := '';
        END;

      LastReqLine := ReqLine;
    END;

    BEGIN
    END.
  }
}

