OBJECT Codeunit 9023 Pmt. Rec. Jnl. Import Trans.
{
  OBJECT-PROPERTIES
  {
    Date=25/10/16;
    Time=12:00:00;
    Version List=NAVW110.0;
  }
  PROPERTIES
  {
    OnRun=VAR
            BankAccReconciliation@1000 : Record 273;
          BEGIN
            BankAccReconciliation.ImportAndProcessToNewStatement
          END;

  }
  CODE
  {

    BEGIN
    END.
  }
}

