OBJECT Page 1251 Text-to-Account Mapping
{
  OBJECT-PROPERTIES
  {
    Date=25/10/16;
    Time=12:00:00;
    Version List=NAVW110.0;
  }
  PROPERTIES
  {
    CaptionML=[ENU=Text-to-Account Mapping;
               PTG=Mapeamento Texto para Conta];
    SaveValues=Yes;
    SourceTable=Table1251;
    PageType=List;
    AutoSplitKey=Yes;
    OnQueryClosePage=BEGIN
                       EXIT(CheckEntriesAreConsistent);
                     END;

    OnAfterGetCurrRecord=BEGIN
                           EnableBalSourceNo := IsBalSourceNoEnabled;
                         END;

  }
  CONTROLS
  {
    { 1   ;0   ;Container ;
                ContainerType=ContentArea }

    { 2   ;1   ;Group     ;
                Name=Group;
                GroupType=Repeater }

    { 4   ;2   ;Field     ;
                ToolTipML=ENU=Specifies the text on the payment that is used to map the payment to a customer, vendor, or general ledger account when you choose the Apply Automatically function in the Payment Reconciliation Journal window.;
                ApplicationArea=#Basic,#Suite;
                SourceExpr="Mapping Text" }

    { 5   ;2   ;Field     ;
                ToolTipML=ENU=Specifies the debit account that payments with this text-to-account mapping are matched with when you choose the Apply Automatically function in the Payment Reconciliation Journal window.;
                ApplicationArea=#Basic,#Suite;
                SourceExpr="Debit Acc. No." }

    { 6   ;2   ;Field     ;
                ToolTipML=ENU=Specifies the credit account that payments with this text-to-account mapping are applied to when you choose the Apply Automatically function in the Payment Reconciliation Journal window.;
                ApplicationArea=#Basic,#Suite;
                SourceExpr="Credit Acc. No." }

    { 3   ;2   ;Field     ;
                ToolTipML=ENU=Specifies the type of balancing account that payments or incoming document records with this text-to-account mapping are created for. The Bank Account option is used for incoming documents only.;
                ApplicationArea=#Basic,#Suite;
                SourceExpr="Bal. Source Type";
                OnValidate=BEGIN
                             EnableBalSourceNo := IsBalSourceNoEnabled;
                           END;
                            }

    { 7   ;2   ;Field     ;
                ToolTipML=ENU=Specifies the balancing account in the general ledger or on bank accounts that payments or incoming document records with this text-to-account mapping are created for.;
                ApplicationArea=#Basic,#Suite;
                SourceExpr="Bal. Source No.";
                Enabled=EnableBalSourceNo }

  }
  CODE
  {
    VAR
      EnableBalSourceNo@1000 : Boolean;

    BEGIN
    END.
  }
}

