OBJECT Page 1229 Payment File Error Details
{
  OBJECT-PROPERTIES
  {
    Date=25/10/16;
    Time=12:00:00;
    Version List=NAVW110.0;
  }
  PROPERTIES
  {
    Editable=No;
    CaptionML=[ENU=Payment File Error Details;
               PTG=Detalhes Erros Ficheiro Pagamento];
    SourceTable=Table1228;
    PageType=CardPart;
  }
  CONTROLS
  {
    { 1   ;    ;Container ;
                ContainerType=ContentArea }

    { 2   ;1   ;Field     ;
                ToolTipML=ENU=Specifies the error that is shown in the Payment Journal window in case payment lines cannot be exported.;
                ApplicationArea=#Basic,#Suite;
                SourceExpr="Error Text" }

    { 3   ;1   ;Field     ;
                ToolTipML=ENU=Specifies more information that may help you resolve the error.;
                ApplicationArea=#Basic,#Suite;
                SourceExpr="Additional Information" }

    { 4   ;1   ;Field     ;
                ExtendedDatatype=URL;
                ToolTipML=ENU=Specifies a web page containing information that may help you resolve the error.;
                ApplicationArea=#Basic,#Suite;
                SourceExpr="Support URL" }

  }
  CODE
  {

    BEGIN
    END.
  }
}

