OBJECT Page 1531 Workflow User Group
{
  OBJECT-PROPERTIES
  {
    Date=25/10/16;
    Time=12:00:00;
    Version List=NAVW110.0;
  }
  PROPERTIES
  {
    CaptionML=[ENU=Workflow User Group;
               PTG=Grupo Utilizador Workflow];
    SourceTable=Table1540;
    PageType=Document;
  }
  CONTROLS
  {
    { 1   ;0   ;Container ;
                ContainerType=ContentArea }

    { 3   ;1   ;Field     ;
                ToolTipML=ENU=Specifies the workflow user group.;
                ApplicationArea=#Suite;
                SourceExpr=Code }

    { 4   ;1   ;Field     ;
                ToolTipML=ENU=Specifies the workflow user group.;
                ApplicationArea=#Suite;
                SourceExpr=Description }

    { 5   ;1   ;Part      ;
                ApplicationArea=#Suite;
                SubPageLink=Workflow User Group Code=FIELD(Code);
                PagePartID=Page1532;
                PartType=Page }

  }
  CODE
  {

    BEGIN
    END.
  }
}

