OBJECT Page 130403 CAL Test Get Codeunits
{
  OBJECT-PROPERTIES
  {
    Date=25/10/16;
    Time=12:00:00;
    Version List=NAVW110.0;
  }
  PROPERTIES
  {
    Editable=No;
    CaptionML=[ENU=CAL Test Get Codeunits;
               PTG=Teste C/AL Obter Codeunits];
    SourceTable=Table2000000058;
    SourceTableView=WHERE(Object Type=CONST(Codeunit),
                          Object Subtype=CONST(Test));
    PageType=List;
  }
  CONTROLS
  {
    { 3   ;0   ;Container ;
                ContainerType=ContentArea }

    { 1   ;1   ;Group     ;
                GroupType=Repeater }

    { 2   ;2   ;Field     ;
                ApplicationArea=#All;
                SourceExpr="Object ID" }

    { 4   ;2   ;Field     ;
                ApplicationArea=#All;
                SourceExpr="Object Name" }

  }
  CODE
  {

    BEGIN
    END.
  }
}

