OBJECT Page 1525 Workflow Response FactBox
{
  OBJECT-PROPERTIES
  {
    Date=25/10/16;
    Time=12:00:00;
    Version List=NAVW110.0;
  }
  PROPERTIES
  {
    CaptionML=[ENU=Workflow Response FactBox;
               PTG=Caixa Factos Resposta Workflow];
    InsertAllowed=No;
    DeleteAllowed=No;
    ModifyAllowed=No;
    SourceTable=Table1507;
    PageType=ListPart;
    SourceTableTemporary=Yes;
    OnFindRecord=VAR
                   CurrFilterGroup@1001 : Integer;
                 BEGIN
                   CurrFilterGroup := FILTERGROUP(0);
                   SETRANGE("Parent Event Step ID");
                   SETRANGE("Workflow Code");
                   FILTERGROUP(4);
                   IF (ParentEventStepID <> GETRANGEMAX("Parent Event Step ID")) OR (WorkflowCode <> GETRANGEMAX("Workflow Code")) THEN BEGIN
                     ParentEventStepID := GETRANGEMAX("Parent Event Step ID");
                     WorkflowCode := GETRANGEMAX("Workflow Code");
                     ClearBuffer;
                   END;
                   FILTERGROUP(CurrFilterGroup);

                   IF ISEMPTY THEN
                     PopulateTableFromEvent(WorkflowCode,ParentEventStepID);

                   EXIT(FIND(Which));
                 END;

  }
  CONTROLS
  {
    { 1   ;0   ;Container ;
                ContainerType=ContentArea }

    { 2   ;1   ;Group     ;
                Name=Group;
                GroupType=Repeater }

    { 3   ;2   ;Field     ;
                ToolTipML=ENU=Specifies the workflow response.;
                ApplicationArea=#Suite;
                SourceExpr="Response Description";
                ShowCaption=No }

  }
  CODE
  {
    VAR
      ParentEventStepID@1001 : Integer;
      WorkflowCode@1000 : Code[20];

    PROCEDURE UpdateData@1();
    BEGIN
      IF (ParentEventStepID = 0) OR (WorkflowCode = '') THEN
        EXIT;

      ClearBuffer;
      PopulateTableFromEvent(WorkflowCode,ParentEventStepID);
      CurrPage.UPDATE(FALSE);
    END;

    BEGIN
    END.
  }
}

