OBJECT Page 1217 Data Exch Field Mapping Part
{
  OBJECT-PROPERTIES
  {
    Date=25/10/16;
    Time=12:00:00;
    Version List=NAVW110.0;
  }
  PROPERTIES
  {
    CaptionML=[ENU=Data Exchange Field Mapping;
               PTG=Mapeamento Campo Intercâmbio Dados];
    SourceTable=Table1225;
    DelayedInsert=Yes;
    PageType=ListPart;
    OnAfterGetRecord=BEGIN
                       ColumnCaptionText := GetColumnCaption;
                       FieldCaptionText := GetFieldCaption;
                     END;

    OnNewRecord=BEGIN
                  ColumnCaptionText := '';
                  FieldCaptionText := '';
                END;

  }
  CONTROLS
  {
    { 1   ;0   ;Container ;
                ContainerType=ContentArea }

    { 2   ;1   ;Group     ;
                Name=Group;
                GroupType=Repeater }

    { 8   ;2   ;Field     ;
                ToolTipML=ENU=Specifies the number of the column in the external file that is mapped to the field in the Target Table ID field, when you are using an intermediate table for data import.;
                ApplicationArea=#Basic,#Suite;
                SourceExpr="Column No.";
                OnValidate=BEGIN
                             ColumnCaptionText := GetColumnCaption;
                           END;
                            }

    { 9   ;2   ;Field     ;
                CaptionML=[ENU=Column Caption;
                           PTG=Legenda Coluna];
                ToolTipML=ENU=Specifies the caption of the column in the external file that is mapped to the field in the Target Table ID field, when you are using an intermediate table for data import.;
                ApplicationArea=#Basic,#Suite;
                SourceExpr=ColumnCaptionText;
                Editable=false }

    { 4   ;2   ;Field     ;
                ToolTipML=ENU=Specifies the number of the field in the external file that is mapped to the field in the Target Table ID field, when you are using an intermediate table for data import.;
                ApplicationArea=#Basic,#Suite;
                SourceExpr="Field ID";
                OnValidate=BEGIN
                             FieldCaptionText := GetFieldCaption;
                           END;

                OnLookup=VAR
                           Field@1001 : Record 2000000041;
                           TableFilter@1003 : Record 9805;
                           FieldsLookup@1000 : Page 9806;
                         BEGIN
                           Field.SETRANGE(TableNo,"Table ID");
                           FieldsLookup.SETTABLEVIEW(Field);
                           FieldsLookup.LOOKUPMODE(TRUE);

                           IF FieldsLookup.RUNMODAL = ACTION::LookupOK THEN BEGIN
                             FieldsLookup.GETRECORD(Field);
                             IF Field."No." = "Field ID" THEN
                               EXIT;
                             TableFilter.CheckDuplicateField(Field);
                             FillSourceRecord(Field);
                             FieldCaptionText := GetFieldCaption;
                           END;
                         END;

                ShowMandatory=TRUE }

    { 3   ;2   ;Field     ;
                CaptionML=[ENU=Field Caption;
                           PTG=Legenda Campo];
                ToolTipML=ENU=Specifies the caption of the field in the external file that is mapped to the field in the Target Table ID field, when you are using an intermediate table for data import.;
                ApplicationArea=#Basic,#Suite;
                SourceExpr=FieldCaptionText;
                Editable=false }

    { 5   ;2   ;Field     ;
                ToolTipML=ENU=Specifies that the map will be skipped if the field is empty. If you do not select this check box, then an export error will occur if the field is empty. When the Use as Intermediate Table check box is selected, the Validate Only check box specifies that the element-to-field map is not used to convert data, but only to validate data.;
                ApplicationArea=#Basic,#Suite;
                SourceExpr=Optional }

    { 6   ;2   ;Field     ;
                SourceExpr=Multiplier;
                Visible=FALSE }

    { 7   ;2   ;Field     ;
                ToolTipML=ENU=Specifies the rule that transforms imported text to a supported value before it can be mapped to a specified field in Microsoft Dynamics NAV. When you choose a value in this field, the same value is entered in the Transformation Rule field in the Data Exch. Field Mapping Buf. table and vice versa.;
                ApplicationArea=#Basic,#Suite;
                SourceExpr="Transformation Rule" }

  }
  CODE
  {
    VAR
      ColumnCaptionText@1000 : Text INDATASET;
      FieldCaptionText@1001 : Text INDATASET;

    BEGIN
    END.
  }
}

