OBJECT Page 1809 Data Migrators
{
  OBJECT-PROPERTIES
  {
    Date=25/10/16;
    Time=12:00:00;
    Version List=NAVW110.0;
  }
  PROPERTIES
  {
    CaptionML=[ENU=Data Migrators;
               PTG=Migradores Dados];
    InsertAllowed=No;
    DeleteAllowed=No;
    ModifyAllowed=No;
    LinksAllowed=No;
    SourceTable=Table1800;
    PageType=List;
    ShowFilter=No;
  }
  CONTROLS
  {
    { 1   ;0   ;Container ;
                ContainerType=ContentArea }

    { 2   ;1   ;Group     ;
                Name=Group;
                GroupType=Repeater }

    { 3   ;2   ;Field     ;
                ToolTipML=ENU=Specifies the number of the record.;
                ApplicationArea=#Basic,#Suite;
                SourceExpr="No.";
                Visible=FALSE }

    { 5   ;2   ;Field     ;
                ToolTipML=ENU=Specifies a description of the record.;
                ApplicationArea=#Basic,#Suite;
                SourceExpr=Description }

  }
  CODE
  {

    BEGIN
    END.
  }
}

