OBJECT Page 2117 O365 Mark As Paid
{
  OBJECT-PROPERTIES
  {
    Date=25/10/16;
    Time=12:00:00;
    Version List=NAVW110.0;
  }
  PROPERTIES
  {
    CaptionML=[ENU=Mark as paid;
               PTG=Marcar como pago];
    InsertAllowed=No;
    DeleteAllowed=No;
    SourceTable=Table981;
    PageType=StandardDialog;
    SourceTableTemporary=Yes;
    ShowFilter=No;
  }
  CONTROLS
  {
    { 1   ;0   ;Container ;
                ContainerType=ContentArea }

    { 2   ;1   ;Group     ;
                Name=General;
                CaptionML=[ENU=Payment;
                           PTG=Pagamento];
                GroupType=Group }

    { 7   ;2   ;Field     ;
                ToolTipML=[ENU=Specifies the amount that still needs to be paid.;
                           PTG=Especifica o valor que ainda precisa ser pago.];
                ApplicationArea=#Basic,#Suite;
                SourceExpr="Rem. Amt. after Discount";
                Editable=FALSE }

    { 4   ;2   ;Field     ;
                ToolTipML=[ENU=Specifies the payment received.;
                           PTG=Especifica o pagamentos recebido.];
                ApplicationArea=#Basic,#Suite;
                SourceExpr="Amount Received" }

    { 5   ;2   ;Field     ;
                ToolTipML=[ENU=Specifies the amount that has not been paid.;
                           PTG=Especifica o valor que ainda precisa ser pago.];
                ApplicationArea=#Basic,#Suite;
                SourceExpr="Remaining Amount";
                Editable=FALSE }

    { 3   ;2   ;Field     ;
                ToolTipML=[ENU=Specifies the date the payment is received.;
                           PTG=Especifica a data em que o pagamento foi recebido.];
                ApplicationArea=#Basic,#Suite;
                SourceExpr="Date Received" }

    { 6   ;1   ;Part      ;
                Name=SalesHistoryListPart;
                ApplicationArea=#Basic,#Suite;
                PagePartID=Page2119;
                Visible=SalesHistoryHasEntries;
                PartType=Page }

  }
  CODE
  {
    VAR
      SalesHistoryHasEntries@1001 : Boolean;

    PROCEDURE SetPaymentRegistrationBuffer@1(VAR TempPaymentRegistrationBuffer@1000 : TEMPORARY Record 981);
    BEGIN
      COPY(TempPaymentRegistrationBuffer,TRUE);
      SalesHistoryHasEntries := CurrPage.SalesHistoryListPart.PAGE.ShowHistory("Document No.");
    END;

    BEGIN
    END.
  }
}

