OBJECT Page 387 Extended Text Lines
{
  OBJECT-PROPERTIES
  {
    Date=25/10/16;
    Time=12:00:00;
    Version List=NAVW110.0;
  }
  PROPERTIES
  {
    CaptionML=[ENU=Lines;
               PTG=Linhas];
    MultipleNewLines=Yes;
    LinksAllowed=No;
    SourceTable=Table280;
    PageType=ListPart;
    AutoSplitKey=Yes;
  }
  CONTROLS
  {
    { 1900000001;0;Container;
                ContainerType=ContentArea }

    { 1   ;1   ;Group     ;
                GroupType=Repeater }

    { 2   ;2   ;Field     ;
                ToolTipML=ENU=Specifies the text. You can use both numbers and letters. There are no restrictions as to the number of lines you can use.;
                ApplicationArea=#Suite;
                SourceExpr=Text }

  }
  CODE
  {

    BEGIN
    END.
  }
}

