OBJECT Page 444 Reminder/Fin. Charge Entries
{
  OBJECT-PROPERTIES
  {
    Date=25/10/16;
    Time=12:00:00;
    Version List=NAVW110.0;
  }
  PROPERTIES
  {
    Editable=No;
    CaptionML=[ENU=Reminder/Fin. Charge Entries;
               PTG=Movs. Carta Aviso/N. Juros];
    SourceTable=Table300;
    PageType=List;
    ActionList=ACTIONS
    {
      { 1900000004;0 ;ActionContainer;
                      ActionContainerType=ActionItems }
      { 29      ;1   ;Action    ;
                      CaptionML=[ENU=&Navigate;
                                 PTG=&Navegar];
                      ToolTipML=ENU=Find all entries and documents that exist for the document number and posting date on the selected entry or document.;
                      Promoted=Yes;
                      Image=Navigate;
                      PromotedCategory=Process;
                      OnAction=BEGIN
                                 Navigate;
                               END;
                                }
    }
  }
  CONTROLS
  {
    { 1900000001;0;Container;
                ContainerType=ContentArea }

    { 1   ;1   ;Group     ;
                GroupType=Repeater }

    { 6   ;2   ;Field     ;
                ToolTipML=ENU=Specifies the posting date of the reminder or finance charge memo.;
                SourceExpr="Posting Date" }

    { 24  ;2   ;Field     ;
                ToolTipML=ENU=Specifies whether the entry comes from a reminder or a finance charge memo.;
                SourceExpr=Type }

    { 16  ;2   ;Field     ;
                ToolTipML=ENU=Specifies the number of the reminder or the finance charge memo.;
                SourceExpr="No." }

    { 4   ;2   ;Field     ;
                ToolTipML=ENU=Specifies the number of the customer ledger entry on the reminder line or finance charge memo line.;
                SourceExpr="Customer Entry No." }

    { 18  ;2   ;Field     ;
                ToolTipML=ENU=Specifies the document type of the customer entry on the reminder line or finance charge memo line.;
                SourceExpr="Document Type" }

    { 20  ;2   ;Field     ;
                ToolTipML=ENU=Specifies the document number of the customer entry on the reminder line or finance charge memo line.;
                SourceExpr="Document No." }

    { 14  ;2   ;Field     ;
                ToolTipML=ENU=Specifies whether or not interest was posted to the customer account and a general ledger account when the reminder or finance charge memo was issued.;
                SourceExpr="Interest Posted" }

    { 10  ;2   ;Field     ;
                ToolTipML=ENU=Specifies the remaining amount of the customer ledger entry this reminder or finance charge memo entry is for.;
                SourceExpr="Remaining Amount" }

    { 8   ;2   ;Field     ;
                ToolTipML=ENU=Specifies the reminder level if the Type field contains Reminder.;
                SourceExpr="Reminder Level" }

    { 2   ;2   ;Field     ;
                ToolTipML=ENU=Specifies that a consecutive number is assigned to each new entry.;
                SourceExpr="Entry No." }

    { 1900000007;0;Container;
                ContainerType=FactBoxArea }

    { 1900383207;1;Part   ;
                Visible=FALSE;
                PartType=System;
                SystemPartID=RecordLinks }

    { 1905767507;1;Part   ;
                Visible=FALSE;
                PartType=System;
                SystemPartID=Notes }

  }
  CODE
  {

    BEGIN
    END.
  }
}

