OBJECT Page 465 Tax Area Line
{
  OBJECT-PROPERTIES
  {
    Date=25/10/16;
    Time=12:00:00;
    Version List=NAVW110.0;
  }
  PROPERTIES
  {
    CaptionML=[ENU=Lines;
               PTG=Linhas];
    LinksAllowed=No;
    SourceTable=Table319;
    PageType=ListPart;
  }
  CONTROLS
  {
    { 1900000001;0;Container;
                ContainerType=ContentArea }

    { 1   ;1   ;Group     ;
                GroupType=Repeater }

    { 2   ;2   ;Field     ;
                ToolTipML=ENU=Specifies a tax jurisdiction code.;
                ApplicationArea=#Basic,#Suite;
                SourceExpr="Tax Jurisdiction Code" }

    { 4   ;2   ;Field     ;
                ToolTipML=ENU=Specifies the description from the tax jurisdiction table when you enter the tax jurisdiction code.;
                ApplicationArea=#Basic,#Suite;
                SourceExpr="Jurisdiction Description";
                Editable=FALSE }

    { 6   ;2   ;Field     ;
                ToolTipML=ENU=Specifies an integer to determine the sequence the program must use when tax is calculated.;
                ApplicationArea=#Basic,#Suite;
                SourceExpr="Calculation Order" }

  }
  CODE
  {

    BEGIN
    END.
  }
}

