OBJECT Page 5308 Outlook Synch. Table List
{
  OBJECT-PROPERTIES
  {
    Date=25/10/16;
    Time=12:00:00;
    Version List=NAVW16.00.01;
  }
  PROPERTIES
  {
    Editable=No;
    CaptionML=[ENU=Outlook Synch. Table List;
               PTG=Lista Tabelas Sinc. Outlook];
    InsertAllowed=No;
    DeleteAllowed=No;
    SourceTable=Table2000000058;
    SourceTableView=SORTING(Object Type,Object ID)
                    WHERE(Object Type=CONST(Table));
    PageType=List;
  }
  CONTROLS
  {
    { 1900000001;0;Container;
                ContainerType=ContentArea }

    { 1   ;1   ;Group     ;
                GroupType=Repeater }

    { 2   ;2   ;Field     ;
                CaptionML=[ENU=Object ID;
                           PTG=ID do Objeto];
                SourceExpr="Object ID" }

    { 8   ;2   ;Field     ;
                CaptionML=[ENU=Object Caption;
                           PTG=Legenda do Objeto];
                SourceExpr="Object Caption" }

    { 1900000007;0;Container;
                ContainerType=FactBoxArea }

    { 1900383207;1;Part   ;
                Visible=FALSE;
                PartType=System;
                SystemPartID=RecordLinks }

    { 1905767507;1;Part   ;
                Visible=FALSE;
                PartType=System;
                SystemPartID=Notes }

  }
  CODE
  {

    BEGIN
    END.
  }
}

