OBJECT Page 5236 Human Res. Units of Measure
{
  OBJECT-PROPERTIES
  {
    Date=25/10/16;
    Time=12:00:00;
    Version List=NAVW110.0;
  }
  PROPERTIES
  {
    CaptionML=[ENU=Human Resource Units of Measure;
               PTG=Unid. Medida Recursos Humanos];
    SourceTable=Table5220;
    PageType=List;
  }
  CONTROLS
  {
    { 1900000001;0;Container;
                ContainerType=ContentArea }

    { 1   ;1   ;Group     ;
                GroupType=Repeater }

    { 2   ;2   ;Field     ;
                ToolTipML=[ENU=Specifies one of the unit of measure codes.;
                           PTG=""];
                SourceExpr=Code }

    { 4   ;2   ;Field     ;
                ToolTipML=[ENU=Specifies the quantity, per unit of measure.;
                           PTG=""];
                SourceExpr="Qty. per Unit of Measure" }

    { 1900000007;0;Container;
                ContainerType=FactBoxArea }

    { 1900383207;1;Part   ;
                Visible=FALSE;
                PartType=System;
                SystemPartID=RecordLinks }

    { 1905767507;1;Part   ;
                Visible=FALSE;
                PartType=System;
                SystemPartID=Notes }

  }
  CODE
  {

    BEGIN
    END.
  }
}

