OBJECT Page 5360 CRM Statistics FactBox
{
  OBJECT-PROPERTIES
  {
    Date=25/10/16;
    Time=12:00:00;
    Version List=NAVW110.0;
  }
  PROPERTIES
  {
    CaptionML=[ENU=Dynamics CRM Statistics;
               PTG=Estatísticas Dynamics CRM];
    SourceTable=Table18;
    PageType=CardPart;
  }
  CONTROLS
  {
    { 1   ;0   ;Container ;
                ContainerType=ContentArea }

    { 2   ;1   ;Field     ;
                Name=Opportunities;
                CaptionML=[ENU=Opportunities;
                           PTG=Oportunidades];
                ToolTipML=ENU=Specifies the sales opportunity that is coupled to this Dynamics CRM opportunity.;
                ApplicationArea=#Suite;
                SourceExpr=GetNoOfCRMOpportunities;
                OnDrillDown=VAR
                              CRMIntegrationManagement@1000 : Codeunit 5330;
                            BEGIN
                              CRMIntegrationManagement.ShowCustomerCRMOpportunities(Rec);
                            END;
                             }

    { 3   ;1   ;Field     ;
                Name=Quotes;
                CaptionML=[ENU=Quotes;
                           PTG=Propostas];
                ApplicationArea=#Suite;
                SourceExpr=GetNoOfCRMQuotes;
                OnDrillDown=VAR
                              CRMIntegrationManagement@1000 : Codeunit 5330;
                            BEGIN
                              CRMIntegrationManagement.ShowCustomerCRMQuotes(Rec);
                            END;
                             }

    { 4   ;1   ;Field     ;
                Name=Cases;
                CaptionML=[ENU=Cases;
                           PTG=Casos];
                ApplicationArea=#Suite;
                SourceExpr=GetNoOfCRMCases;
                OnDrillDown=VAR
                              CRMIntegrationManagement@1000 : Codeunit 5330;
                            BEGIN
                              CRMIntegrationManagement.ShowCustomerCRMCases(Rec);
                            END;
                             }

  }
  CODE
  {

    LOCAL PROCEDURE GetNoOfCRMOpportunities@1() : Integer;
    VAR
      CRMIntegrationManagement@1000 : Codeunit 5330;
    BEGIN
      EXIT(CRMIntegrationManagement.GetNoOfCRMOpportunities(Rec));
    END;

    LOCAL PROCEDURE GetNoOfCRMQuotes@2() : Integer;
    VAR
      CRMIntegrationManagement@1000 : Codeunit 5330;
    BEGIN
      EXIT(CRMIntegrationManagement.GetNoOfCRMQuotes(Rec));
    END;

    LOCAL PROCEDURE GetNoOfCRMCases@3() : Integer;
    VAR
      CRMIntegrationManagement@1000 : Codeunit 5330;
    BEGIN
      EXIT(CRMIntegrationManagement.GetNoOfCRMCases(Rec));
    END;

    BEGIN
    END.
  }
}

