OBJECT Page 5232 Absence Over. by Cat. Matrix
{
  OBJECT-PROPERTIES
  {
    Date=25/10/16;
    Time=12:00:00;
    Version List=NAVW110.0;
  }
  PROPERTIES
  {
    CaptionML=[ENU=Lines;
               PTG=Linhas];
    LinksAllowed=No;
    SourceTable=Table2000000007;
    PageType=Card;
  }
  CONTROLS
  {
  }
  CODE
  {

    BEGIN
    END.
  }
}

