OBJECT Page 512 Customer Disc. Groups
{
  OBJECT-PROPERTIES
  {
    Date=25/10/16;
    Time=12:00:00;
    Version List=NAVW110.0;
  }
  PROPERTIES
  {
    CaptionML=[ENU=Customer Disc. Groups;
               PTG=Grupos Desconto Cliente];
    SourceTable=Table340;
    PageType=List;
    ActionList=ACTIONS
    {
      { 1900000003;0 ;ActionContainer;
                      ActionContainerType=RelatedInformation }
      { 9       ;1   ;ActionGroup;
                      CaptionML=[ENU=Cust. &Disc. Groups;
                                 PTG=Grupos &Desconto Cliente];
                      Image=Group }
      { 10      ;2   ;Action    ;
                      Name=SalesLineDiscounts;
                      CaptionML=[ENU=Sales &Line Discounts;
                                 PTG=Descontos &Linha Venda];
                      ToolTipML=ENU=View the sales line discounts that are available. These discount agreements can be for individual customers, for a group of customers, for all customers or for a campaign.;
                      ApplicationArea=#Basic,#Suite;
                      RunObject=Page 7004;
                      RunPageView=SORTING(Sales Type,Sales Code);
                      RunPageLink=Sales Type=CONST(Customer Disc. Group),
                                  Sales Code=FIELD(Code);
                      Promoted=Yes;
                      Image=SalesLineDisc;
                      PromotedCategory=Process }
    }
  }
  CONTROLS
  {
    { 1900000001;0;Container;
                ContainerType=ContentArea }

    { 1   ;1   ;Group     ;
                GroupType=Repeater }

    { 2   ;2   ;Field     ;
                ToolTipML=ENU=Specifies a code for the customer discount group.;
                ApplicationArea=#Basic,#Suite;
                SourceExpr=Code }

    { 4   ;2   ;Field     ;
                ToolTipML=ENU=Specifies a description for the customer discount group.;
                ApplicationArea=#Basic,#Suite;
                SourceExpr=Description }

    { 1900000007;0;Container;
                ContainerType=FactBoxArea }

    { 1900383207;1;Part   ;
                Visible=FALSE;
                PartType=System;
                SystemPartID=RecordLinks }

    { 1905767507;1;Part   ;
                Visible=FALSE;
                PartType=System;
                SystemPartID=Notes }

  }
  CODE
  {

    PROCEDURE GetSelectionFilter@1() : Text;
    VAR
      CustDiscGr@1001 : Record 340;
      SelectionFilterManagement@1002 : Codeunit 46;
    BEGIN
      CurrPage.SETSELECTIONFILTER(CustDiscGr);
      EXIT(SelectionFilterManagement.GetSelectionFilterForCustomerDiscountGroup(CustDiscGr));
    END;

    BEGIN
    END.
  }
}

