OBJECT Page 671 Job Queue Category List
{
  OBJECT-PROPERTIES
  {
    Date=25/10/16;
    Time=12:00:00;
    Version List=NAVW110.0;
  }
  PROPERTIES
  {
    CaptionML=[ENU=Job Queue Category List;
               PTG=Lista Categ. Fila de Tarefas];
    SourceTable=Table471;
    PageType=List;
  }
  CONTROLS
  {
    { 1   ;0   ;Container ;
                ContainerType=ContentArea }

    { 2   ;1   ;Group     ;
                Name=Group;
                GroupType=Repeater }

    { 3   ;2   ;Field     ;
                ToolTipML=ENU=Specifies a code for the category of job queue. You can enter a maximum of 10 characters, both numbers and letters.;
                ApplicationArea=#Basic,#Suite;
                SourceExpr=Code }

    { 4   ;2   ;Field     ;
                ToolTipML=ENU=Specifies a description of the job queue category. You can enter a maximum of 30 characters, both numbers and letters.;
                ApplicationArea=#Basic,#Suite;
                SourceExpr=Description }

  }
  CODE
  {

    BEGIN
    END.
  }
}

