OBJECT Page 7510 Item Attribute Value Editor
{
  OBJECT-PROPERTIES
  {
    Date=25/10/16;
    Time=12:00:00;
    Version List=NAVW110.0;
  }
  PROPERTIES
  {
    CaptionML=[ENU=Item Attribute Values;
               PTG=Valores Atributo Produto];
    SourceTable=Table27;
    PageType=StandardDialog;
    OnOpenPage=BEGIN
                 CurrPage.ItemAttributeValueList.PAGE.LoadAttributes("No.");
               END;

  }
  CONTROLS
  {
    { 1   ;    ;Container ;
                ContainerType=ContentArea }

    { 2   ;1   ;Part      ;
                Name=ItemAttributeValueList;
                ApplicationArea=#Basic,#Suite;
                PagePartID=Page7504;
                PartType=Page }

  }
  CODE
  {

    BEGIN
    END.
  }
}

