OBJECT Page 7501 Item Attribute Values
{
  OBJECT-PROPERTIES
  {
    Date=25/10/16;
    Time=12:00:00;
    Version List=NAVW110.0;
  }
  PROPERTIES
  {
    CaptionML=[ENU=Item Attribute Values;
               PTG=Valores Atributo Produto];
    SourceTable=Table7501;
    DataCaptionFields=Attribute ID;
    PageType=List;
    OnOpenPage=VAR
                 AttributeID@1000 : Integer;
               BEGIN
                 IF GETFILTER("Attribute ID") <> '' THEN
                   AttributeID := GETRANGEMIN("Attribute ID");
                 IF AttributeID <> 0 THEN BEGIN
                   FILTERGROUP(2);
                   SETRANGE("Attribute ID",AttributeID);
                   FILTERGROUP(0);
                 END;
               END;

    ActionList=ACTIONS
    {
      { 3       ;    ;ActionContainer;
                      ActionContainerType=ActionItems }
      { 5       ;1   ;ActionGroup;
                      Name=Process;
                      CaptionML=[ENU=Process;
                                 PTG=Processar] }
      { 7       ;2   ;Action    ;
                      Name=ItemAttributeValueTranslations;
                      CaptionML=[ENU=Translations;
                                 PTG=Traduášes];
                      ToolTipML=ENU=Opens a window in which you can specify the translations of the selected item attribute value.;
                      ApplicationArea=#Basic,#Suite;
                      RunObject=Page 7505;
                      RunPageLink=Attribute ID=FIELD(Attribute ID),
                                  ID=FIELD(ID);
                      Promoted=Yes;
                      PromotedIsBig=Yes;
                      Image=Translations;
                      PromotedCategory=Process }
    }
  }
  CONTROLS
  {
    { 1900000001;0;Container;
                ContainerType=ContentArea }

    { 1   ;1   ;Group     ;
                GroupType=Repeater }

    { 4   ;2   ;Field     ;
                ToolTipML=ENU=Specifies the value of the item attribute.;
                ApplicationArea=#Basic,#Suite;
                SourceExpr=Value }

    { 2   ;2   ;Field     ;
                ToolTipML=ENU=Specifies whether it should be possible to assign this item attribute value to an item.;
                ApplicationArea=#Basic,#Suite;
                SourceExpr=Blocked }

  }
  CODE
  {

    BEGIN
    END.
  }
}

