OBJECT Page 7175 Credit Memo Lines Subform
{
  OBJECT-PROPERTIES
  {
    Date=25/10/16;
    Time=12:00:00;
    Version List=NAVW110.0;
  }
  PROPERTIES
  {
    Editable=No;
    CaptionML=[ENU=Lines;
               PTG=Linhas];
    LinksAllowed=No;
    SourceTable=Table115;
    PageType=ListPart;
  }
  CONTROLS
  {
  }
  CODE
  {

    BEGIN
    END.
  }
}

