OBJECT Page 7505 Item Attr. Value Translations
{
  OBJECT-PROPERTIES
  {
    Date=25/10/16;
    Time=12:00:00;
    Version List=NAVW110.0;
  }
  PROPERTIES
  {
    CaptionML=[ENU=Item Attribute Value Translations;
               PTG=Traduášes Valor Atributo Produto];
    SourceTable=Table7503;
    DataCaptionExpr=DynamicCaption;
    DelayedInsert=Yes;
    PageType=List;
    OnAfterGetCurrRecord=BEGIN
                           UpdateWindowCaption
                         END;

  }
  CONTROLS
  {
    { 1   ;0   ;Container ;
                ContainerType=ContentArea }

    { 2   ;1   ;Group     ;
                Name=Group;
                GroupType=Repeater }

    { 3   ;2   ;Field     ;
                ToolTipML=[ENU=Specifies a language code.;
                           PTG=""];
                ApplicationArea=#Basic,#Suite;
                SourceExpr="Language Code";
                LookupPageID=Languages }

    { 5   ;2   ;Field     ;
                ToolTipML=[ENU=Specifies the translated name of the item attribute value.;
                           PTG=""];
                ApplicationArea=#Basic,#Suite;
                SourceExpr=Name }

  }
  CODE
  {
    VAR
      DynamicCaption@1000 : Text;

    LOCAL PROCEDURE UpdateWindowCaption@1();
    VAR
      ItemAttributeValue@1000 : Record 7501;
    BEGIN
      IF ItemAttributeValue.GET("Attribute ID",ID) THEN
        DynamicCaption := ItemAttributeValue.Value
      ELSE
        DynamicCaption := '';
    END;

    BEGIN
    END.
  }
}

