OBJECT Page 953 Manager Time Sheet List
{
  OBJECT-PROPERTIES
  {
    Date=25/10/16;
    Time=12:00:00;
    Version List=NAVW110.0;
  }
  PROPERTIES
  {
    CaptionML=[ENU=Manager Time Sheet List;
               PTG=Lista Folha Horas Gestor];
    InsertAllowed=No;
    ModifyAllowed=No;
    SourceTable=Table950;
    SourceTableView=SORTING(Resource No.,Starting Date);
    PageType=List;
    RefreshOnActivate=Yes;
    OnOpenPage=BEGIN
                 IF UserSetup.GET(USERID) THEN
                   CurrPage.EDITABLE := UserSetup."Time Sheet Admin.";
                 TimeSheetMgt.FilterTimeSheets(Rec,FIELDNO("Approver User ID"));
               END;

    ActionList=ACTIONS
    {
      { 3       ;    ;ActionContainer;
                      ActionContainerType=ActionItems }
      { 5       ;1   ;Action    ;
                      ShortCutKey=Return;
                      CaptionML=[ENU=&Edit Time Sheet;
                                 PTG=&Editar Folha Horas];
                      ToolTipML=ENU=Open the time sheet in edit mode.;
                      ApplicationArea=#Jobs;
                      Promoted=Yes;
                      PromotedIsBig=Yes;
                      Image=OpenJournal;
                      PromotedCategory=Process;
                      OnAction=BEGIN
                                 EditTimeSheet;
                               END;
                                }
      { 7       ;    ;ActionContainer;
                      ActionContainerType=RelatedInformation }
      { 8       ;1   ;ActionGroup;
                      CaptionML=[ENU=&Time Sheet;
                                 PTG=Folha Horas];
                      Image=Timesheet }
      { 9       ;2   ;Action    ;
                      Name=Comments;
                      CaptionML=[ENU=Co&mments;
                                 PTG=Co&ment rios];
                      RunObject=Page 955;
                      RunPageLink=No.=FIELD(No.),
                                  Time Sheet Line No.=CONST(0);
                      Image=ViewComments }
      { 16      ;2   ;Action    ;
                      ShortCutKey=Ctrl+F7;
                      CaptionML=[ENU=Posting E&ntries;
                                 PTG=Registo Movime&ntos];
                      ToolTipML=ENU=View the resource ledger entries that have been posted in connection with the.;
                      ApplicationArea=#Jobs;
                      RunObject=Page 958;
                      RunPageLink=Time Sheet No.=FIELD(No.);
                      Image=PostingEntries }
    }
  }
  CONTROLS
  {
    { 1900000001;0;Container;
                ContainerType=ContentArea }

    { 1   ;1   ;Group     ;
                GroupType=Repeater }

    { 11  ;2   ;Field     ;
                ToolTipML=ENU=Specifies the number of a time sheet.;
                ApplicationArea=#Jobs;
                SourceExpr="No." }

    { 2   ;2   ;Field     ;
                ToolTipML=ENU=Specifies the starting date for a time sheet.;
                ApplicationArea=#Jobs;
                SourceExpr="Starting Date" }

    { 4   ;2   ;Field     ;
                ToolTipML=ENU=Specifies the ending date for a time sheet.;
                ApplicationArea=#Jobs;
                SourceExpr="Ending Date" }

    { 6   ;2   ;Field     ;
                ToolTipML=ENU=Specifies the number of the resource for the time sheet.;
                ApplicationArea=#Jobs;
                SourceExpr="Resource No." }

    { 10  ;2   ;Field     ;
                DrillDown=No;
                ToolTipML=ENU=Specifies if there are time sheet lines with the status Open.;
                ApplicationArea=#Jobs;
                SourceExpr="Open Exists" }

    { 12  ;2   ;Field     ;
                DrillDown=No;
                ToolTipML=ENU=Specifies if there are time sheet lines with the status Submitted.;
                ApplicationArea=#Jobs;
                SourceExpr="Submitted Exists" }

    { 13  ;2   ;Field     ;
                DrillDown=No;
                ToolTipML=ENU=Specifies whether there are time sheet lines with the status Rejected.;
                ApplicationArea=#Jobs;
                SourceExpr="Rejected Exists" }

    { 14  ;2   ;Field     ;
                DrillDown=No;
                ToolTipML=ENU=Specifies whether there are time sheet lines with the status Approved.;
                ApplicationArea=#Jobs;
                SourceExpr="Approved Exists" }

    { 15  ;2   ;Field     ;
                DrillDown=No;
                ToolTipML=ENU=Specifies whether there are time sheet lines with the status Posted.;
                ApplicationArea=#Jobs;
                SourceExpr="Posted Exists" }

    { 17  ;2   ;Field     ;
                DrillDown=No;
                ToolTipML=ENU=Specifies that a comment about this document has been entered.;
                SourceExpr=Comment }

  }
  CODE
  {
    VAR
      UserSetup@1001 : Record 91;
      TimeSheetMgt@1000 : Codeunit 950;

    LOCAL PROCEDURE EditTimeSheet@1();
    VAR
      TimeSheetLine@1001 : Record 951;
    BEGIN
      TimeSheetMgt.SetTimeSheetNo("No.",TimeSheetLine);
      PAGE.RUN(PAGE::"Manager Time Sheet",TimeSheetLine);
    END;

    BEGIN
    END.
  }
}

