OBJECT Page 9980 Contact MS Sales
{
  OBJECT-PROPERTIES
  {
    Date=25/10/16;
    Time=12:00:00;
    Version List=NAVW110.0;
  }
  PROPERTIES
  {
    Editable=No;
    CaptionML=[ENU=Contact MS Sales;
               PTG=Contacto Vendas MS];
  }
  CONTROLS
  {
    { 1   ;    ;Container ;
                Name=Container;
                ContainerType=ContentArea }

    { 2   ;1   ;Field     ;
                Name=WebPageViewer;
                ApplicationArea=#Basic,#Suite;
                ControlAddIn=[Microsoft.Dynamics.Nav.Client.WebPageViewer;PublicKeyToken=31bf3856ad364e35] }

  }
  CODE
  {
    VAR
      ContactSalesForwardLinkTxt@1001 : TextConst '@@@={Locked};ENU="https://go.microsoft.com/fwlink/?linkid=828707";PTG="https://go.microsoft.com/fwlink/?linkid=828707"';
      ForwardLinkMgt@1000 : Codeunit 1431;

    EVENT WebPageViewer@-2::ControlAddInReady@8(callbackUrl@1000 : Text);
    BEGIN
      CurrPage.WebPageViewer.Navigate(ForwardLinkMgt.GetLanguageSpecificUrl(ContactSalesForwardLinkTxt));
    END;

    EVENT WebPageViewer@-2::DocumentReady@9();
    BEGIN
    END;

    EVENT WebPageViewer@-2::Callback@10(data@1000 : Text);
    BEGIN
    END;

    EVENT WebPageViewer@-2::Refresh@11(callbackUrl@1000 : Text);
    BEGIN
      CurrPage.WebPageViewer.Navigate(ForwardLinkMgt.GetLanguageSpecificUrl(ContactSalesForwardLinkTxt));
    END;

    BEGIN
    END.
  }
}

