OBJECT Page 9371 Analysis View List Sales
{
  OBJECT-PROPERTIES
  {
    Date=25/10/16;
    Time=12:00:00;
    Version List=NAVW110.0;
  }
  PROPERTIES
  {
    Editable=No;
    CaptionML=[ENU=Analysis View List Sales;
               PTG=Lista Dados An lise Vendas];
    SourceTable=Table7152;
    SourceTableView=WHERE(Analysis Area=CONST(Sales));
    DataCaptionFields=Analysis Area;
    PageType=List;
    CardPageID=Sales Analysis View Card;
    ActionList=ACTIONS
    {
      { 1900000003;0 ;ActionContainer;
                      ActionContainerType=RelatedInformation }
      { 19      ;1   ;ActionGroup;
                      CaptionML=[ENU=&Analysis;
                                 PTG=&An lise];
                      Image=AnalysisView }
      { 14      ;2   ;Action    ;
                      CaptionML=[ENU=Filter;
                                 PTG=Filtro];
                      RunObject=Page 7152;
                      RunPageLink=Analysis Area=FIELD(Analysis Area),
                                  Analysis View Code=FIELD(Code);
                      Image=Filter }
      { 1900000004;0 ;ActionContainer;
                      ActionContainerType=ActionItems }
      { 15      ;1   ;Action    ;
                      Name=EditAnalysisView;
                      CaptionML=[ENU=Edit Analysis View;
                                 PTG=Editar Dados An lise];
                      Promoted=Yes;
                      Image=Edit;
                      PromotedCategory=Process;
                      OnAction=VAR
                                 SalesAnalysisbyDim@1000 : Page 7158;
                               BEGIN
                                 SalesAnalysisbyDim.SetCurrentAnalysisViewCode(Code);
                                 SalesAnalysisbyDim.RUN;
                               END;
                                }
      { 21      ;1   ;Action    ;
                      CaptionML=[ENU=&Update;
                                 PTG=At&ualizar];
                      RunObject=Codeunit 7150;
                      Promoted=Yes;
                      Image=Refresh;
                      PromotedCategory=Process }
    }
  }
  CONTROLS
  {
    { 1900000001;0;Container;
                ContainerType=ContentArea }

    { 1   ;1   ;Group     ;
                GroupType=Repeater }

    { 2   ;2   ;Field     ;
                ToolTipML=[ENU=Specifies a code for the analysis view.;
                           PTG=""];
                SourceExpr=Code }

    { 4   ;2   ;Field     ;
                ToolTipML=[ENU=Specifies the name of the analysis view.;
                           PTG=""];
                SourceExpr=Name }

    { 22  ;2   ;Field     ;
                ToolTipML=[ENU=Specifies whether to include an update of analysis view budget entries, when updating an analysis view.;
                           PTG=""];
                SourceExpr="Include Budgets" }

    { 6   ;2   ;Field     ;
                ToolTipML=[ENU=Specifies the date on which the analysis view was last updated.;
                           PTG=""];
                SourceExpr="Last Date Updated";
                Editable=FALSE }

    { 8   ;2   ;Field     ;
                ToolTipML=[ENU=Specifies one of the three dimensions that you can include in an analysis view.;
                           PTG=""];
                SourceExpr="Dimension 1 Code" }

    { 10  ;2   ;Field     ;
                ToolTipML=[ENU=Specifies one of the three dimensions that you can include in an analysis view.;
                           PTG=""];
                SourceExpr="Dimension 2 Code" }

    { 12  ;2   ;Field     ;
                ToolTipML=[ENU=Specifies one of the three dimensions that you can include in an analysis view.;
                           PTG=""];
                SourceExpr="Dimension 3 Code" }

    { 1900000007;0;Container;
                ContainerType=FactBoxArea }

    { 1900383207;1;Part   ;
                Visible=FALSE;
                PartType=System;
                SystemPartID=RecordLinks }

    { 1905767507;1;Part   ;
                Visible=FALSE;
                PartType=System;
                SystemPartID=Notes }

  }
  CODE
  {

    BEGIN
    END.
  }
}

