OBJECT Page 99000843 Prod. Order BOM Cmt List
{
  OBJECT-PROPERTIES
  {
    Date=25/10/16;
    Time=12:00:00;
    Version List=NAVW110.0;
  }
  PROPERTIES
  {
    Editable=No;
    CaptionML=[ENU=Comment List;
               PTG=Lista Coment rios];
    LinksAllowed=No;
    SourceTable=Table5416;
    PageType=List;
    AutoSplitKey=Yes;
  }
  CONTROLS
  {
    { 1900000001;0;Container;
                ContainerType=ContentArea }

    { 1   ;1   ;Group     ;
                GroupType=Repeater }

    { 2   ;2   ;Field     ;
                ToolTipML=[ENU=Specifies the date.;
                           PTG=""];
                SourceExpr=Date }

    { 4   ;2   ;Field     ;
                ToolTipML=[ENU=Specifies the actual comment text.;
                           PTG=""];
                SourceExpr=Comment }

    { 6   ;2   ;Field     ;
                ToolTipML=[ENU=Specifies a code for the comments.;
                           PTG=""];
                SourceExpr=Code;
                Visible=FALSE }

  }
  CODE
  {

    BEGIN
    END.
  }
}

