OBJECT Page 9377 Analysis Report Inventory
{
  OBJECT-PROPERTIES
  {
    Date=25/10/16;
    Time=12:00:00;
    Version List=NAVW110.0;
  }
  PROPERTIES
  {
    CaptionML=[ENU=Analysis Report Inventory;
               PTG=Mapa An lise Invent rio];
    SourceTable=Table7111;
    SourceTableView=WHERE(Analysis Area=CONST(Inventory));
    PageType=List;
    ActionList=ACTIONS
    {
      { 1900000004;0 ;ActionContainer;
                      ActionContainerType=ActionItems }
      { 10      ;1   ;Action    ;
                      Name=EditAnalysisReport;
                      ShortCutKey=Return;
                      CaptionML=[ENU=Edit Analysis Report;
                                 PTG=Editar Mapa An lise];
                      ToolTipML=[ENU=Open the window for the analysis report.;
                                 PTG=""];
                      Promoted=Yes;
                      Image=Edit;
                      PromotedCategory=Process;
                      OnAction=VAR
                                 InventoryAnalysisReport@1000 : Page 7119;
                               BEGIN
                                 InventoryAnalysisReport.SetReportName(Name);
                                 InventoryAnalysisReport.RUN;
                               END;
                                }
    }
  }
  CONTROLS
  {
    { 1900000001;0;Container;
                ContainerType=ContentArea }

    { 1   ;1   ;Group     ;
                GroupType=Repeater }

    { 2   ;2   ;Field     ;
                ToolTipML=[ENU=Specifies the analysis report name.;
                           PTG=""];
                SourceExpr=Name }

    { 4   ;2   ;Field     ;
                ToolTipML=[ENU=Specifies the analysis report description.;
                           PTG=""];
                SourceExpr=Description }

    { 6   ;2   ;Field     ;
                ToolTipML=[ENU=Specifies the analysis line template name for this analysis report.;
                           PTG=""];
                SourceExpr="Analysis Line Template Name" }

    { 8   ;2   ;Field     ;
                ToolTipML=[ENU=Specifies the column template name for this analysis report.;
                           PTG=""];
                SourceExpr="Analysis Column Template Name" }

    { 1900000007;0;Container;
                ContainerType=FactBoxArea }

    { 1900383207;1;Part   ;
                Visible=FALSE;
                PartType=System;
                SystemPartID=RecordLinks }

    { 1905767507;1;Part   ;
                Visible=FALSE;
                PartType=System;
                SystemPartID=Notes }

  }
  CODE
  {

    BEGIN
    END.
  }
}

