OBJECT Page 9653 Report Layouts Part
{
  OBJECT-PROPERTIES
  {
    Date=25/10/16;
    Time=12:00:00;
    Version List=NAVW110.0;
  }
  PROPERTIES
  {
    Editable=No;
    CaptionML=[ENU=Report Layouts Part;
               PTG=Layout Part Mapa];
    SourceTable=Table9650;
    SourceTableView=SORTING(Report ID,Company Name,Type);
    PageType=ListPart;
  }
  CONTROLS
  {
    { 1   ;0   ;Container ;
                ContainerType=ContentArea }

    { 2   ;1   ;Group     ;
                Name=Group;
                GroupType=Repeater }

    { 18  ;2   ;Field     ;
                ToolTipML=[ENU=Specifies a description of the report layout.;
                           PTG=""];
                ApplicationArea=#Basic,#Suite;
                SourceExpr=Description }

    { 7   ;2   ;Field     ;
                ToolTipML=[ENU=Specifies the file type of the report layout. The following table includes the types that are available:;
                           PTG=""];
                ApplicationArea=#Basic,#Suite;
                SourceExpr=Type }

    { 3   ;2   ;Field     ;
                Width=10;
                ToolTipML=[ENU=Specifies the Microsoft Dynamics NAV company that the report layout applies to. You to create report layouts that can only be used on reports when they are run for a specific to a company. If the field is blank, then the layout will be available for use in all companies.;
                           PTG=""];
                ApplicationArea=#Basic,#Suite;
                SourceExpr="Company Name" }

  }
  CODE
  {

    BEGIN
    END.
  }
}

