OBJECT Query 1511 User IDs by Notification Type
{
  OBJECT-PROPERTIES
  {
    Date=15/09/15;
    Time=12:00:00;
    Version List=NAVW19.00;
  }
  PROPERTIES
  {
    CaptionML=ENU=User IDs by Notification Type;
  }
  ELEMENTS
  {
    { 1   ;    ;DataItem;                    ;
               DataItemTable=Table1511 }

    { 2   ;1   ;Column  ;                    ;
               DataSource=Recipient User ID }

    { 5   ;1   ;Column  ;                    ;
               DataSource=Type }

    { 3   ;1   ;Column  ;                    ;
               MethodType=Totals;
               Method=Count }

  }
  CODE
  {

    BEGIN
    END.
  }
}

