OBJECT Report 5084 Email Merge
{
  OBJECT-PROPERTIES
  {
    Date=25/10/16;
    Time=12:00:00;
    Version List=NAVW110.0;
  }
  PROPERTIES
  {
    CaptionML=[ENU=Email Merge;
               PTG=Merge Email];
  }
  DATASET
  {
    { 1   ;    ;DataItem;                    ;
               DataItemTable=Table2000000026;
               DataItemTableView=SORTING(Number)
                                 WHERE(Number=CONST(1)) }

    { 14  ;1   ;Column  ;Company_Information_Picture;
               SourceExpr=CompanyInformation.Picture }

    { 2   ;1   ;Column  ;Company_Information_Name;
               SourceExpr=CompanyInformation.Name }

    { 3   ;1   ;Column  ;Company_Information_Address;
               SourceExpr=CompanyInformation.Address }

    { 4   ;1   ;Column  ;Company_Information_Address_2;
               SourceExpr=CompanyInformation."Address 2" }

    { 5   ;1   ;Column  ;Company_Information_Post_Code;
               SourceExpr=CompanyInformation."Post Code" }

    { 6   ;1   ;Column  ;Company_Information_City;
               SourceExpr=CompanyInformation.City }

    { 7   ;1   ;Column  ;SalespersonPurchaser_Name;
               SourceExpr=SalespersonPurchaser.Name }

    { 8   ;1   ;Column  ;SalespersonPurchaser_Job_Title;
               SourceExpr=SalespersonPurchaser."Job Title" }

    { 9   ;1   ;Column  ;Content             ;
               SourceExpr=Content }

    { 10  ;1   ;Column  ;Contact_Mail_Address;
               SourceExpr=Contact_Mail_Address }

    { 11  ;1   ;Column  ;Formal_Salutation   ;
               SourceExpr=Formal_Salutation }

    { 12  ;1   ;Column  ;Informal_Salutation ;
               SourceExpr=Informal_Salutation }

    { 13  ;1   ;Column  ;Document_Date       ;
               SourceExpr=Document_Date }

  }
  REQUESTPAGE
  {
    PROPERTIES
    {
    }
    CONTROLS
    {
    }
  }
  LABELS
  {
  }
  CODE
  {
    VAR
      SegmentLine@1008 : Record 5077;
      CompanyInformation@1000 : Record 79;
      Contact@1001 : Record 5050;
      SalespersonPurchaser@1002 : Record 13;
      Content@1006 : Text;
      Contact_Mail_Address@1004 : Text;
      Formal_Salutation@1005 : Text;
      Informal_Salutation@1007 : Text;
      Document_Date@1011 : Text;

    PROCEDURE InitializeRequest@1(InSegmentLine@1000 : Record 5077;InContent@1002 : Text);
    BEGIN
      SegmentLine := InSegmentLine;
      Content := InContent;

      CompanyInformation.GET;
      CompanyInformation.CALCFIELDS(Picture);

      IF Contact.GET(SegmentLine."Contact No.") THEN BEGIN
        Formal_Salutation := Contact.GetSalutation(0,SegmentLine."Language Code");
        Informal_Salutation := Contact.GetSalutation(1,SegmentLine."Language Code");
      END;

      IF SalespersonPurchaser.GET(InSegmentLine."Salesperson Code") THEN;

      Contact_Mail_Address := '';
      Document_Date := FORMAT(SegmentLine.Date,0,4);
    END;

    BEGIN
    END.
  }
  RDLDATA
  {
    <?xml version="1.0" encoding="utf-8"?>
<Report xmlns:rd="http://schemas.microsoft.com/SQLServer/reporting/reportdesigner" xmlns:cl="http://schemas.microsoft.com/sqlserver/reporting/2010/01/componentdefinition" xmlns="http://schemas.microsoft.com/sqlserver/reporting/2010/01/reportdefinition">
  <DataSources>
    <DataSource Name="DataSource">
      <ConnectionProperties>
        <DataProvider>SQL</DataProvider>
        <ConnectString />
      </ConnectionProperties>
    </DataSource>
  </DataSources>
  <ReportSections>
    <ReportSection>
      <Body>
        <Height>2in</Height>
        <Style />
      </Body>
      <Width>6.5in</Width>
      <Page>
        <Style />
      </Page>
    </ReportSection>
  </ReportSections>
  <Code>Public Function BlankZero(ByVal Value As Decimal)
    if Value = 0 then
        Return ""
    end if
    Return Value
End Function

Public Function BlankPos(ByVal Value As Decimal)
    if Value &gt; 0 then
        Return ""
    end if
    Return Value
End Function

Public Function BlankZeroAndPos(ByVal Value As Decimal)
    if Value &gt;= 0 then
        Return ""
    end if
    Return Value
End Function

Public Function BlankNeg(ByVal Value As Decimal)
    if Value &lt; 0 then
        Return ""
    end if
    Return Value
End Function

Public Function BlankNegAndZero(ByVal Value As Decimal)
    if Value &lt;= 0 then
        Return ""
    end if
    Return Value
End Function
</Code>
  <Language>=User!Language</Language>
  <ConsumeContainerWhitespace>true</ConsumeContainerWhitespace>
  <rd:ReportID>0eeb6585-38ae-40f1-885b-8d50088d51b4</rd:ReportID>
  <rd:ReportUnitType>Inch</rd:ReportUnitType>
</Report>
    END_OF_RDLDATA
  }
}

