OBJECT Report 99000766 Prod. Order - Picking List
{
  OBJECT-PROPERTIES
  {
    Date=25/10/16;
    Time=12:00:00;
    Version List=NAVW110.0;
  }
  PROPERTIES
  {
    CaptionML=[ENU=Prod. Order - Picking List;
               PTG=Ord. Prod. - Lista Recolha];
    OnPreReport=BEGIN
                  ItemFilter := Item.GETFILTERS;
                  ComponentFilter := "Prod. Order Component".GETFILTERS;
                END;

  }
  DATASET
  {
    { 8129;    ;DataItem;                    ;
               DataItemTable=Table27;
               PrintOnlyIfDetail=Yes;
               ReqFilterFields=No.,Search Description,Assembly BOM,Inventory Posting Group,Location Filter,Bin Filter,Shelf No. }

    { 2   ;1   ;Column  ;TodayFormatted      ;
               SourceExpr=FORMAT(TODAY,0,4) }

    { 3   ;1   ;Column  ;CompanyName         ;
               SourceExpr=COMPANYNAME }

    { 7   ;1   ;Column  ;ItemTableCaptionFilter;
               SourceExpr=TABLECAPTION + ': ' + ItemFilter }

    { 1000000000;1;Column;ItemFilter         ;
               SourceExpr=ItemFilter }

    { 8   ;1   ;Column  ;CompneedCompFilter  ;
               SourceExpr=STRSUBSTNO(Text000,ComponentFilter) }

    { 1000000001;1;Column;ComponentFilter    ;
               SourceExpr=ComponentFilter }

    { 15  ;1   ;Column  ;No_Item             ;
               SourceExpr="No." }

    { 18  ;1   ;Column  ;BaseUOM_Item        ;
               IncludeCaption=Yes;
               SourceExpr="Base Unit of Measure" }

    { 1   ;1   ;Column  ;ProdOrderPickingListCapt;
               SourceExpr=ProdOrderPickingListCaptLbl }

    { 4   ;1   ;Column  ;CurrReportPageNoCapt;
               SourceExpr=CurrReportPageNoCaptLbl }

    { 10  ;1   ;Column  ;ProdOrderDescCaption;
               SourceExpr=ProdOrderDescCaptionLbl }

    { 11  ;1   ;Column  ;ProdOrderCompDueDateCapt;
               SourceExpr=ProdOrderCompDueDateCaptLbl }

    { 7771;1   ;DataItem;                    ;
               DataItemTable=Table5407;
               DataItemTableView=SORTING(Item No.,Variant Code,Location Code,Status,Due Date);
               OnPreDataItem=BEGIN
                               CurrReport.CREATETOTALS("Remaining Quantity");

                               SETFILTER("Remaining Quantity",'<>0');
                             END;

               OnAfterGetRecord=BEGIN
                                  IF Status = Status::Finished THEN
                                    CurrReport.SKIP;
                                  ProdOrder.GET(Status,"Prod. Order No.");
                                END;

               ReqFilterFields=Status,Due Date;
               DataItemLink=Item No.=FIELD(No.),
                            Variant Code=FIELD(Variant Filter),
                            Location Code=FIELD(Location Filter),
                            Bin Code=FIELD(Bin Filter) }

    { 19  ;2   ;Column  ;ProdOrdNo_ProdOrderComp;
               IncludeCaption=Yes;
               SourceExpr="Prod. Order No." }

    { 20  ;2   ;Column  ;Desc_ProdOrder      ;
               SourceExpr=ProdOrder.Description }

    { 21  ;2   ;Column  ;DueDate_ProdOrderComp;
               SourceExpr="Due Date" }

    { 22  ;2   ;Column  ;RmngQty_ProdOrderComp;
               IncludeCaption=Yes;
               SourceExpr="Remaining Quantity" }

    { 25  ;2   ;Column  ;Scrap_ProdOrderComp ;
               IncludeCaption=Yes;
               SourceExpr="Scrap %" }

    { 29  ;2   ;Column  ;LoctionCode_ProdOrderComp;
               IncludeCaption=Yes;
               SourceExpr="Location Code" }

    { 27  ;2   ;Column  ;BinCode_ProdOrderComp;
               IncludeCaption=Yes;
               SourceExpr="Bin Code" }

    { 23  ;2   ;Column  ;Description_Item    ;
               SourceExpr=Item.Description }

  }
  REQUESTPAGE
  {
    PROPERTIES
    {
    }
    CONTROLS
    {
    }
  }
  LABELS
  {
  }
  CODE
  {
    VAR
      Text000@1000 : TextConst 'ENU=Component Need : %1.;PTG=Neces. Componente : %1.';
      ProdOrder@1001 : Record 5405;
      ItemFilter@1002 : Text;
      ComponentFilter@1003 : Text;
      ProdOrderPickingListCaptLbl@7524 : TextConst 'ENU=Prod. Order - Picking List;PTG=Ord. Prod. - Lista Recolha';
      CurrReportPageNoCaptLbl@6079 : TextConst 'ENU=Page;PTG=P g.';
      ProdOrderDescCaptionLbl@2262 : TextConst 'ENU=Name;PTG=Nome';
      ProdOrderCompDueDateCaptLbl@9288 : TextConst 'ENU=Due Date;PTG=Data Vencimento';

    BEGIN
    END.
  }
  RDLDATA
  {
    <?xml version="1.0" encoding="utf-8"?>
<Report xmlns:rd="http://schemas.microsoft.com/SQLServer/reporting/reportdesigner" xmlns="http://schemas.microsoft.com/sqlserver/reporting/2010/01/reportdefinition">
  <AutoRefresh>0</AutoRefresh>
  <DataSources>
    <DataSource Name="DataSource">
      <ConnectionProperties>
        <DataProvider>SQL</DataProvider>
        <ConnectString />
      </ConnectionProperties>
      <rd:SecurityType>None</rd:SecurityType>
      <rd:DataSourceID>17b13082-1750-45ea-821d-ced502a5a4ce</rd:DataSourceID>
    </DataSource>
  </DataSources>
  <DataSets>
    <DataSet Name="DataSet_Result">
      <Query>
        <DataSourceName>DataSource</DataSourceName>
        <CommandText />
      </Query>
      <Fields>
        <Field Name="TodayFormatted">
          <DataField>TodayFormatted</DataField>
        </Field>
        <Field Name="CompanyName">
          <DataField>CompanyName</DataField>
        </Field>
        <Field Name="ItemTableCaptionFilter">
          <DataField>ItemTableCaptionFilter</DataField>
        </Field>
        <Field Name="ItemFilter">
          <DataField>ItemFilter</DataField>
        </Field>
        <Field Name="CompneedCompFilter">
          <DataField>CompneedCompFilter</DataField>
        </Field>
        <Field Name="ComponentFilter">
          <DataField>ComponentFilter</DataField>
        </Field>
        <Field Name="No_Item">
          <DataField>No_Item</DataField>
        </Field>
        <Field Name="BaseUOM_Item">
          <DataField>BaseUOM_Item</DataField>
        </Field>
        <Field Name="ProdOrderPickingListCapt">
          <DataField>ProdOrderPickingListCapt</DataField>
        </Field>
        <Field Name="CurrReportPageNoCapt">
          <DataField>CurrReportPageNoCapt</DataField>
        </Field>
        <Field Name="ProdOrderDescCaption">
          <DataField>ProdOrderDescCaption</DataField>
        </Field>
        <Field Name="ProdOrderCompDueDateCapt">
          <DataField>ProdOrderCompDueDateCapt</DataField>
        </Field>
        <Field Name="ProdOrdNo_ProdOrderComp">
          <DataField>ProdOrdNo_ProdOrderComp</DataField>
        </Field>
        <Field Name="Desc_ProdOrder">
          <DataField>Desc_ProdOrder</DataField>
        </Field>
        <Field Name="DueDate_ProdOrderComp">
          <DataField>DueDate_ProdOrderComp</DataField>
        </Field>
        <Field Name="RmngQty_ProdOrderComp">
          <DataField>RmngQty_ProdOrderComp</DataField>
        </Field>
        <Field Name="RmngQty_ProdOrderCompFormat">
          <DataField>RmngQty_ProdOrderCompFormat</DataField>
        </Field>
        <Field Name="Scrap_ProdOrderComp">
          <DataField>Scrap_ProdOrderComp</DataField>
        </Field>
        <Field Name="Scrap_ProdOrderCompFormat">
          <DataField>Scrap_ProdOrderCompFormat</DataField>
        </Field>
        <Field Name="LoctionCode_ProdOrderComp">
          <DataField>LoctionCode_ProdOrderComp</DataField>
        </Field>
        <Field Name="BinCode_ProdOrderComp">
          <DataField>BinCode_ProdOrderComp</DataField>
        </Field>
        <Field Name="Description_Item">
          <DataField>Description_Item</DataField>
        </Field>
      </Fields>
      <rd:DataSetInfo>
        <rd:DataSetName>DataSet</rd:DataSetName>
        <rd:SchemaPath>Report.xsd</rd:SchemaPath>
        <rd:TableName>Result</rd:TableName>
      </rd:DataSetInfo>
    </DataSet>
  </DataSets>
  <ReportSections>
    <ReportSection>
      <Body>
        <ReportItems>
          <Tablix Name="ProdOrderComp">
            <TablixBody>
              <TablixColumns>
                <TablixColumn>
                  <Width>0.86614in</Width>
                </TablixColumn>
                <TablixColumn>
                  <Width>1.90726in</Width>
                </TablixColumn>
                <TablixColumn>
                  <Width>0.82677in</Width>
                </TablixColumn>
                <TablixColumn>
                  <Width>0.82677in</Width>
                </TablixColumn>
                <TablixColumn>
                  <Width>0.7874in</Width>
                </TablixColumn>
                <TablixColumn>
                  <Width>0.98425in</Width>
                </TablixColumn>
                <TablixColumn>
                  <Width>0.77756in</Width>
                </TablixColumn>
              </TablixColumns>
              <TablixRows>
                <TablixRow>
                  <Height>0.13889in</Height>
                  <TablixCells>
                    <TablixCell>
                      <CellContents>
                        <Textbox Name="ProdOrderCompProdOrderNoCapt">
                          <CanGrow>true</CanGrow>
                          <KeepTogether>true</KeepTogether>
                          <Paragraphs>
                            <Paragraph>
                              <TextRuns>
                                <TextRun>
                                  <Value>=Parameters!ProdOrdNo_ProdOrderCompCaption.Value</Value>
                                  <Style>
                                    <FontFamily>Segoe UI</FontFamily>
                                    <FontSize>8pt</FontSize>
                                    <FontWeight>Bold</FontWeight>
                                  </Style>
                                </TextRun>
                              </TextRuns>
                              <Style>
                                <TextAlign>Left</TextAlign>
                              </Style>
                            </Paragraph>
                          </Paragraphs>
                          <ZIndex>70</ZIndex>
                          <Style>
                            <VerticalAlign>Bottom</VerticalAlign>
                            <PaddingRight>5pt</PaddingRight>
                          </Style>
                        </Textbox>
                      </CellContents>
                    </TablixCell>
                    <TablixCell>
                      <CellContents>
                        <Textbox Name="ProdOrderDescCapt">
                          <CanGrow>true</CanGrow>
                          <KeepTogether>true</KeepTogether>
                          <Paragraphs>
                            <Paragraph>
                              <TextRuns>
                                <TextRun>
                                  <Value>=First(Fields!ProdOrderDescCaption.Value)</Value>
                                  <Style>
                                    <FontFamily>Segoe UI</FontFamily>
                                    <FontSize>8pt</FontSize>
                                    <FontWeight>Bold</FontWeight>
                                  </Style>
                                </TextRun>
                              </TextRuns>
                              <Style />
                            </Paragraph>
                          </Paragraphs>
                          <ZIndex>69</ZIndex>
                          <Style>
                            <VerticalAlign>Bottom</VerticalAlign>
                            <PaddingLeft>5pt</PaddingLeft>
                            <PaddingRight>5pt</PaddingRight>
                          </Style>
                        </Textbox>
                      </CellContents>
                    </TablixCell>
                    <TablixCell>
                      <CellContents>
                        <Textbox Name="ProdOrderCompDueDateCapt">
                          <CanGrow>true</CanGrow>
                          <KeepTogether>true</KeepTogether>
                          <Paragraphs>
                            <Paragraph>
                              <TextRuns>
                                <TextRun>
                                  <Value>=First(Fields!ProdOrderCompDueDateCapt.Value)</Value>
                                  <Style>
                                    <FontFamily>Segoe UI</FontFamily>
                                    <FontSize>8pt</FontSize>
                                    <FontWeight>Bold</FontWeight>
                                  </Style>
                                </TextRun>
                              </TextRuns>
                              <Style>
                                <TextAlign>Left</TextAlign>
                              </Style>
                            </Paragraph>
                          </Paragraphs>
                          <ZIndex>68</ZIndex>
                          <Style>
                            <VerticalAlign>Bottom</VerticalAlign>
                            <PaddingLeft>5pt</PaddingLeft>
                            <PaddingRight>5pt</PaddingRight>
                          </Style>
                        </Textbox>
                      </CellContents>
                    </TablixCell>
                    <TablixCell>
                      <CellContents>
                        <Textbox Name="ProdOrderCompRemainingQtyCapt">
                          <CanGrow>true</CanGrow>
                          <KeepTogether>true</KeepTogether>
                          <Paragraphs>
                            <Paragraph>
                              <TextRuns>
                                <TextRun>
                                  <Value>=Parameters!RmngQty_ProdOrderCompCaption.Value</Value>
                                  <Style>
                                    <FontFamily>Segoe UI</FontFamily>
                                    <FontSize>8pt</FontSize>
                                    <FontWeight>Bold</FontWeight>
                                  </Style>
                                </TextRun>
                              </TextRuns>
                              <Style>
                                <TextAlign>Right</TextAlign>
                              </Style>
                            </Paragraph>
                          </Paragraphs>
                          <ZIndex>67</ZIndex>
                          <Style>
                            <VerticalAlign>Bottom</VerticalAlign>
                            <PaddingLeft>5pt</PaddingLeft>
                            <PaddingRight>5pt</PaddingRight>
                          </Style>
                        </Textbox>
                      </CellContents>
                    </TablixCell>
                    <TablixCell>
                      <CellContents>
                        <Textbox Name="ProdOrderCompScrapCaption">
                          <CanGrow>true</CanGrow>
                          <KeepTogether>true</KeepTogether>
                          <Paragraphs>
                            <Paragraph>
                              <TextRuns>
                                <TextRun>
                                  <Value>=Parameters!Scrap_ProdOrderCompCaption.Value</Value>
                                  <Style>
                                    <FontFamily>Segoe UI</FontFamily>
                                    <FontSize>8pt</FontSize>
                                    <FontWeight>Bold</FontWeight>
                                  </Style>
                                </TextRun>
                              </TextRuns>
                              <Style>
                                <TextAlign>Right</TextAlign>
                              </Style>
                            </Paragraph>
                          </Paragraphs>
                          <ZIndex>66</ZIndex>
                          <Style>
                            <VerticalAlign>Bottom</VerticalAlign>
                            <PaddingLeft>5pt</PaddingLeft>
                            <PaddingRight>5pt</PaddingRight>
                          </Style>
                        </Textbox>
                      </CellContents>
                    </TablixCell>
                    <TablixCell>
                      <CellContents>
                        <Textbox Name="ProdOrderCompLocationCodeCapt">
                          <CanGrow>true</CanGrow>
                          <KeepTogether>true</KeepTogether>
                          <Paragraphs>
                            <Paragraph>
                              <TextRuns>
                                <TextRun>
                                  <Value>=Parameters!LoctionCode_ProdOrderCompCaption.Value</Value>
                                  <Style>
                                    <FontFamily>Segoe UI</FontFamily>
                                    <FontSize>8pt</FontSize>
                                    <FontWeight>Bold</FontWeight>
                                  </Style>
                                </TextRun>
                              </TextRuns>
                              <Style />
                            </Paragraph>
                          </Paragraphs>
                          <ZIndex>65</ZIndex>
                          <Style>
                            <VerticalAlign>Bottom</VerticalAlign>
                            <PaddingLeft>5pt</PaddingLeft>
                            <PaddingRight>5pt</PaddingRight>
                          </Style>
                        </Textbox>
                      </CellContents>
                    </TablixCell>
                    <TablixCell>
                      <CellContents>
                        <Textbox Name="ProdOrderCompBinCodeCapt">
                          <CanGrow>true</CanGrow>
                          <KeepTogether>true</KeepTogether>
                          <Paragraphs>
                            <Paragraph>
                              <TextRuns>
                                <TextRun>
                                  <Value>=Parameters!BinCode_ProdOrderCompCaption.Value</Value>
                                  <Style>
                                    <FontFamily>Segoe UI</FontFamily>
                                    <FontSize>8pt</FontSize>
                                    <FontWeight>Bold</FontWeight>
                                  </Style>
                                </TextRun>
                              </TextRuns>
                              <Style />
                            </Paragraph>
                          </Paragraphs>
                          <ZIndex>64</ZIndex>
                          <Style>
                            <VerticalAlign>Bottom</VerticalAlign>
                            <PaddingLeft>5pt</PaddingLeft>
                          </Style>
                        </Textbox>
                      </CellContents>
                    </TablixCell>
                  </TablixCells>
                </TablixRow>
                <TablixRow>
                  <Height>0.06944in</Height>
                  <TablixCells>
                    <TablixCell>
                      <CellContents>
                        <Textbox Name="Textbox2">
                          <CanGrow>true</CanGrow>
                          <KeepTogether>true</KeepTogether>
                          <Paragraphs>
                            <Paragraph>
                              <TextRuns>
                                <TextRun>
                                  <Value />
                                  <Style>
                                    <FontFamily>Segoe UI</FontFamily>
                                    <FontSize>8pt</FontSize>
                                    <FontWeight>Bold</FontWeight>
                                  </Style>
                                </TextRun>
                              </TextRuns>
                              <Style />
                            </Paragraph>
                          </Paragraphs>
                          <rd:DefaultName>Textbox2</rd:DefaultName>
                          <Style>
                            <Border>
                              <Style>None</Style>
                            </Border>
                            <BottomBorder>
                              <Style>Solid</Style>
                            </BottomBorder>
                            <VerticalAlign>Middle</VerticalAlign>
                            <PaddingRight>5pt</PaddingRight>
                          </Style>
                        </Textbox>
                      </CellContents>
                    </TablixCell>
                    <TablixCell>
                      <CellContents>
                        <Textbox Name="Textbox3">
                          <CanGrow>true</CanGrow>
                          <KeepTogether>true</KeepTogether>
                          <Paragraphs>
                            <Paragraph>
                              <TextRuns>
                                <TextRun>
                                  <Value />
                                  <Style>
                                    <FontFamily>Segoe UI</FontFamily>
                                    <FontSize>8pt</FontSize>
                                    <FontWeight>Bold</FontWeight>
                                  </Style>
                                </TextRun>
                              </TextRuns>
                              <Style />
                            </Paragraph>
                          </Paragraphs>
                          <rd:DefaultName>Textbox3</rd:DefaultName>
                          <Style>
                            <Border>
                              <Style>None</Style>
                            </Border>
                            <BottomBorder>
                              <Style>Solid</Style>
                            </BottomBorder>
                            <VerticalAlign>Middle</VerticalAlign>
                            <PaddingLeft>5pt</PaddingLeft>
                            <PaddingRight>5pt</PaddingRight>
                          </Style>
                        </Textbox>
                      </CellContents>
                    </TablixCell>
                    <TablixCell>
                      <CellContents>
                        <Textbox Name="Textbox5">
                          <CanGrow>true</CanGrow>
                          <KeepTogether>true</KeepTogether>
                          <Paragraphs>
                            <Paragraph>
                              <TextRuns>
                                <TextRun>
                                  <Value />
                                  <Style>
                                    <FontFamily>Segoe UI</FontFamily>
                                    <FontSize>8pt</FontSize>
                                    <FontWeight>Bold</FontWeight>
                                  </Style>
                                </TextRun>
                              </TextRuns>
                              <Style />
                            </Paragraph>
                          </Paragraphs>
                          <rd:DefaultName>Textbox5</rd:DefaultName>
                          <Style>
                            <Border>
                              <Style>None</Style>
                            </Border>
                            <BottomBorder>
                              <Style>Solid</Style>
                            </BottomBorder>
                            <VerticalAlign>Middle</VerticalAlign>
                            <PaddingLeft>5pt</PaddingLeft>
                            <PaddingRight>5pt</PaddingRight>
                          </Style>
                        </Textbox>
                      </CellContents>
                    </TablixCell>
                    <TablixCell>
                      <CellContents>
                        <Textbox Name="Textbox6">
                          <CanGrow>true</CanGrow>
                          <KeepTogether>true</KeepTogether>
                          <Paragraphs>
                            <Paragraph>
                              <TextRuns>
                                <TextRun>
                                  <Value />
                                  <Style>
                                    <FontFamily>Segoe UI</FontFamily>
                                    <FontSize>8pt</FontSize>
                                    <FontWeight>Bold</FontWeight>
                                  </Style>
                                </TextRun>
                              </TextRuns>
                              <Style>
                                <TextAlign>Right</TextAlign>
                              </Style>
                            </Paragraph>
                          </Paragraphs>
                          <rd:DefaultName>Textbox6</rd:DefaultName>
                          <Style>
                            <Border>
                              <Style>None</Style>
                            </Border>
                            <BottomBorder>
                              <Style>Solid</Style>
                            </BottomBorder>
                            <VerticalAlign>Middle</VerticalAlign>
                            <PaddingLeft>5pt</PaddingLeft>
                            <PaddingRight>5pt</PaddingRight>
                          </Style>
                        </Textbox>
                      </CellContents>
                    </TablixCell>
                    <TablixCell>
                      <CellContents>
                        <Textbox Name="Textbox8">
                          <CanGrow>true</CanGrow>
                          <KeepTogether>true</KeepTogether>
                          <Paragraphs>
                            <Paragraph>
                              <TextRuns>
                                <TextRun>
                                  <Value />
                                  <Style>
                                    <FontFamily>Segoe UI</FontFamily>
                                    <FontSize>8pt</FontSize>
                                    <FontWeight>Bold</FontWeight>
                                  </Style>
                                </TextRun>
                              </TextRuns>
                              <Style />
                            </Paragraph>
                          </Paragraphs>
                          <rd:DefaultName>Textbox8</rd:DefaultName>
                          <Style>
                            <Border>
                              <Style>None</Style>
                            </Border>
                            <BottomBorder>
                              <Style>Solid</Style>
                            </BottomBorder>
                            <VerticalAlign>Middle</VerticalAlign>
                            <PaddingLeft>5pt</PaddingLeft>
                            <PaddingRight>5pt</PaddingRight>
                          </Style>
                        </Textbox>
                      </CellContents>
                    </TablixCell>
                    <TablixCell>
                      <CellContents>
                        <Textbox Name="Textbox15">
                          <CanGrow>true</CanGrow>
                          <KeepTogether>true</KeepTogether>
                          <Paragraphs>
                            <Paragraph>
                              <TextRuns>
                                <TextRun>
                                  <Value />
                                  <Style>
                                    <FontFamily>Segoe UI</FontFamily>
                                    <FontSize>8pt</FontSize>
                                    <FontWeight>Bold</FontWeight>
                                  </Style>
                                </TextRun>
                              </TextRuns>
                              <Style />
                            </Paragraph>
                          </Paragraphs>
                          <rd:DefaultName>Textbox15</rd:DefaultName>
                          <Style>
                            <Border>
                              <Style>None</Style>
                            </Border>
                            <BottomBorder>
                              <Style>Solid</Style>
                            </BottomBorder>
                            <VerticalAlign>Middle</VerticalAlign>
                            <PaddingLeft>5pt</PaddingLeft>
                            <PaddingRight>5pt</PaddingRight>
                          </Style>
                        </Textbox>
                      </CellContents>
                    </TablixCell>
                    <TablixCell>
                      <CellContents>
                        <Textbox Name="Textbox16">
                          <CanGrow>true</CanGrow>
                          <KeepTogether>true</KeepTogether>
                          <Paragraphs>
                            <Paragraph>
                              <TextRuns>
                                <TextRun>
                                  <Value />
                                  <Style>
                                    <FontFamily>Segoe UI</FontFamily>
                                    <FontSize>8pt</FontSize>
                                    <FontWeight>Bold</FontWeight>
                                  </Style>
                                </TextRun>
                              </TextRuns>
                              <Style />
                            </Paragraph>
                          </Paragraphs>
                          <rd:DefaultName>Textbox16</rd:DefaultName>
                          <Style>
                            <Border>
                              <Style>None</Style>
                            </Border>
                            <BottomBorder>
                              <Style>Solid</Style>
                            </BottomBorder>
                            <VerticalAlign>Middle</VerticalAlign>
                            <PaddingLeft>5pt</PaddingLeft>
                          </Style>
                        </Textbox>
                      </CellContents>
                    </TablixCell>
                  </TablixCells>
                </TablixRow>
                <TablixRow>
                  <Height>0.06944in</Height>
                  <TablixCells>
                    <TablixCell>
                      <CellContents>
                        <Textbox Name="Textbox17">
                          <CanGrow>true</CanGrow>
                          <KeepTogether>true</KeepTogether>
                          <Paragraphs>
                            <Paragraph>
                              <TextRuns>
                                <TextRun>
                                  <Value />
                                  <Style>
                                    <FontFamily>Segoe UI</FontFamily>
                                    <FontSize>8pt</FontSize>
                                    <FontWeight>Bold</FontWeight>
                                  </Style>
                                </TextRun>
                              </TextRuns>
                              <Style />
                            </Paragraph>
                          </Paragraphs>
                          <rd:DefaultName>Textbox17</rd:DefaultName>
                          <Style>
                            <VerticalAlign>Middle</VerticalAlign>
                            <PaddingRight>5pt</PaddingRight>
                          </Style>
                        </Textbox>
                      </CellContents>
                    </TablixCell>
                    <TablixCell>
                      <CellContents>
                        <Textbox Name="Textbox18">
                          <CanGrow>true</CanGrow>
                          <KeepTogether>true</KeepTogether>
                          <Paragraphs>
                            <Paragraph>
                              <TextRuns>
                                <TextRun>
                                  <Value />
                                  <Style>
                                    <FontFamily>Segoe UI</FontFamily>
                                    <FontSize>8pt</FontSize>
                                    <FontWeight>Bold</FontWeight>
                                  </Style>
                                </TextRun>
                              </TextRuns>
                              <Style />
                            </Paragraph>
                          </Paragraphs>
                          <rd:DefaultName>Textbox18</rd:DefaultName>
                          <Style>
                            <VerticalAlign>Middle</VerticalAlign>
                            <PaddingLeft>5pt</PaddingLeft>
                            <PaddingRight>5pt</PaddingRight>
                          </Style>
                        </Textbox>
                      </CellContents>
                    </TablixCell>
                    <TablixCell>
                      <CellContents>
                        <Textbox Name="Textbox19">
                          <CanGrow>true</CanGrow>
                          <KeepTogether>true</KeepTogether>
                          <Paragraphs>
                            <Paragraph>
                              <TextRuns>
                                <TextRun>
                                  <Value />
                                  <Style>
                                    <FontFamily>Segoe UI</FontFamily>
                                    <FontSize>8pt</FontSize>
                                    <FontWeight>Bold</FontWeight>
                                  </Style>
                                </TextRun>
                              </TextRuns>
                              <Style />
                            </Paragraph>
                          </Paragraphs>
                          <rd:DefaultName>Textbox19</rd:DefaultName>
                          <Style>
                            <VerticalAlign>Middle</VerticalAlign>
                            <PaddingLeft>5pt</PaddingLeft>
                            <PaddingRight>5pt</PaddingRight>
                          </Style>
                        </Textbox>
                      </CellContents>
                    </TablixCell>
                    <TablixCell>
                      <CellContents>
                        <Textbox Name="Textbox21">
                          <CanGrow>true</CanGrow>
                          <KeepTogether>true</KeepTogether>
                          <Paragraphs>
                            <Paragraph>
                              <TextRuns>
                                <TextRun>
                                  <Value />
                                  <Style>
                                    <FontFamily>Segoe UI</FontFamily>
                                    <FontSize>8pt</FontSize>
                                    <FontWeight>Bold</FontWeight>
                                  </Style>
                                </TextRun>
                              </TextRuns>
                              <Style>
                                <TextAlign>Right</TextAlign>
                              </Style>
                            </Paragraph>
                          </Paragraphs>
                          <rd:DefaultName>Textbox21</rd:DefaultName>
                          <Style>
                            <VerticalAlign>Middle</VerticalAlign>
                            <PaddingLeft>5pt</PaddingLeft>
                            <PaddingRight>5pt</PaddingRight>
                          </Style>
                        </Textbox>
                      </CellContents>
                    </TablixCell>
                    <TablixCell>
                      <CellContents>
                        <Textbox Name="Textbox22">
                          <CanGrow>true</CanGrow>
                          <KeepTogether>true</KeepTogether>
                          <Paragraphs>
                            <Paragraph>
                              <TextRuns>
                                <TextRun>
                                  <Value />
                                  <Style>
                                    <FontFamily>Segoe UI</FontFamily>
                                    <FontSize>8pt</FontSize>
                                    <FontWeight>Bold</FontWeight>
                                  </Style>
                                </TextRun>
                              </TextRuns>
                              <Style />
                            </Paragraph>
                          </Paragraphs>
                          <rd:DefaultName>Textbox22</rd:DefaultName>
                          <Style>
                            <VerticalAlign>Middle</VerticalAlign>
                            <PaddingLeft>5pt</PaddingLeft>
                            <PaddingRight>5pt</PaddingRight>
                          </Style>
                        </Textbox>
                      </CellContents>
                    </TablixCell>
                    <TablixCell>
                      <CellContents>
                        <Textbox Name="Textbox23">
                          <CanGrow>true</CanGrow>
                          <KeepTogether>true</KeepTogether>
                          <Paragraphs>
                            <Paragraph>
                              <TextRuns>
                                <TextRun>
                                  <Value />
                                  <Style>
                                    <FontFamily>Segoe UI</FontFamily>
                                    <FontSize>8pt</FontSize>
                                    <FontWeight>Bold</FontWeight>
                                  </Style>
                                </TextRun>
                              </TextRuns>
                              <Style />
                            </Paragraph>
                          </Paragraphs>
                          <rd:DefaultName>Textbox23</rd:DefaultName>
                          <Style>
                            <VerticalAlign>Middle</VerticalAlign>
                            <PaddingLeft>5pt</PaddingLeft>
                            <PaddingRight>5pt</PaddingRight>
                          </Style>
                        </Textbox>
                      </CellContents>
                    </TablixCell>
                    <TablixCell>
                      <CellContents>
                        <Textbox Name="Textbox24">
                          <CanGrow>true</CanGrow>
                          <KeepTogether>true</KeepTogether>
                          <Paragraphs>
                            <Paragraph>
                              <TextRuns>
                                <TextRun>
                                  <Value />
                                  <Style>
                                    <FontFamily>Segoe UI</FontFamily>
                                    <FontSize>8pt</FontSize>
                                    <FontWeight>Bold</FontWeight>
                                  </Style>
                                </TextRun>
                              </TextRuns>
                              <Style />
                            </Paragraph>
                          </Paragraphs>
                          <rd:DefaultName>Textbox24</rd:DefaultName>
                          <Style>
                            <VerticalAlign>Middle</VerticalAlign>
                            <PaddingLeft>5pt</PaddingLeft>
                          </Style>
                        </Textbox>
                      </CellContents>
                    </TablixCell>
                  </TablixCells>
                </TablixRow>
                <TablixRow>
                  <Height>0.13889in</Height>
                  <TablixCells>
                    <TablixCell>
                      <CellContents>
                        <Textbox Name="ItemNoCapt">
                          <KeepTogether>true</KeepTogether>
                          <Paragraphs>
                            <Paragraph>
                              <TextRuns>
                                <TextRun>
                                  <Value>=First(Fields!No_Item.Value)</Value>
                                  <Style>
                                    <FontFamily>Segoe UI</FontFamily>
                                    <FontSize>8pt</FontSize>
                                    <FontWeight>Bold</FontWeight>
                                  </Style>
                                </TextRun>
                              </TextRuns>
                              <Style>
                                <TextAlign>Left</TextAlign>
                              </Style>
                            </Paragraph>
                          </Paragraphs>
                          <ZIndex>57</ZIndex>
                          <Style>
                            <VerticalAlign>Top</VerticalAlign>
                            <PaddingRight>5pt</PaddingRight>
                          </Style>
                        </Textbox>
                      </CellContents>
                    </TablixCell>
                    <TablixCell>
                      <CellContents>
                        <Textbox Name="ItemDesc">
                          <KeepTogether>true</KeepTogether>
                          <Paragraphs>
                            <Paragraph>
                              <TextRuns>
                                <TextRun>
                                  <Value>=First(Fields!Description_Item.Value)</Value>
                                  <Style>
                                    <FontFamily>Segoe UI</FontFamily>
                                    <FontSize>8pt</FontSize>
                                    <FontWeight>Bold</FontWeight>
                                  </Style>
                                </TextRun>
                              </TextRuns>
                              <Style />
                            </Paragraph>
                          </Paragraphs>
                          <ZIndex>56</ZIndex>
                          <Style>
                            <VerticalAlign>Top</VerticalAlign>
                            <PaddingLeft>5pt</PaddingLeft>
                            <PaddingRight>5pt</PaddingRight>
                          </Style>
                        </Textbox>
                      </CellContents>
                    </TablixCell>
                    <TablixCell>
                      <CellContents>
                        <Textbox Name="TextBox1">
                          <KeepTogether>true</KeepTogether>
                          <Paragraphs>
                            <Paragraph>
                              <TextRuns>
                                <TextRun>
                                  <Value />
                                  <Style />
                                </TextRun>
                              </TextRuns>
                              <Style />
                            </Paragraph>
                          </Paragraphs>
                          <ZIndex>55</ZIndex>
                          <Style>
                            <VerticalAlign>Middle</VerticalAlign>
                            <PaddingLeft>5pt</PaddingLeft>
                            <PaddingRight>5pt</PaddingRight>
                          </Style>
                        </Textbox>
                      </CellContents>
                    </TablixCell>
                    <TablixCell>
                      <CellContents>
                        <Textbox Name="TextBox11">
                          <KeepTogether>true</KeepTogether>
                          <Paragraphs>
                            <Paragraph>
                              <TextRuns>
                                <TextRun>
                                  <Value />
                                  <Style />
                                </TextRun>
                              </TextRuns>
                              <Style />
                            </Paragraph>
                          </Paragraphs>
                          <ZIndex>54</ZIndex>
                          <Style>
                            <VerticalAlign>Middle</VerticalAlign>
                            <PaddingLeft>5pt</PaddingLeft>
                            <PaddingRight>5pt</PaddingRight>
                          </Style>
                        </Textbox>
                      </CellContents>
                    </TablixCell>
                    <TablixCell>
                      <CellContents>
                        <Textbox Name="TextBox12">
                          <KeepTogether>true</KeepTogether>
                          <Paragraphs>
                            <Paragraph>
                              <TextRuns>
                                <TextRun>
                                  <Value />
                                  <Style />
                                </TextRun>
                              </TextRuns>
                              <Style />
                            </Paragraph>
                          </Paragraphs>
                          <ZIndex>53</ZIndex>
                          <Style>
                            <VerticalAlign>Middle</VerticalAlign>
                            <PaddingLeft>5pt</PaddingLeft>
                            <PaddingRight>5pt</PaddingRight>
                          </Style>
                        </Textbox>
                      </CellContents>
                    </TablixCell>
                    <TablixCell>
                      <CellContents>
                        <Textbox Name="TextBox13">
                          <KeepTogether>true</KeepTogether>
                          <Paragraphs>
                            <Paragraph>
                              <TextRuns>
                                <TextRun>
                                  <Value />
                                  <Style />
                                </TextRun>
                              </TextRuns>
                              <Style />
                            </Paragraph>
                          </Paragraphs>
                          <ZIndex>52</ZIndex>
                          <Style>
                            <VerticalAlign>Middle</VerticalAlign>
                            <PaddingLeft>5pt</PaddingLeft>
                            <PaddingRight>5pt</PaddingRight>
                          </Style>
                        </Textbox>
                      </CellContents>
                    </TablixCell>
                    <TablixCell>
                      <CellContents>
                        <Textbox Name="TextBox14">
                          <KeepTogether>true</KeepTogether>
                          <Paragraphs>
                            <Paragraph>
                              <TextRuns>
                                <TextRun>
                                  <Value />
                                  <Style />
                                </TextRun>
                              </TextRuns>
                              <Style />
                            </Paragraph>
                          </Paragraphs>
                          <ZIndex>51</ZIndex>
                          <Style>
                            <VerticalAlign>Middle</VerticalAlign>
                            <PaddingLeft>5pt</PaddingLeft>
                          </Style>
                        </Textbox>
                      </CellContents>
                    </TablixCell>
                  </TablixCells>
                </TablixRow>
                <TablixRow>
                  <Height>0.13889in</Height>
                  <TablixCells>
                    <TablixCell>
                      <CellContents>
                        <Textbox Name="textbox25">
                          <KeepTogether>true</KeepTogether>
                          <Paragraphs>
                            <Paragraph>
                              <TextRuns>
                                <TextRun>
                                  <Value />
                                  <Style>
                                    <FontFamily>Segoe UI</FontFamily>
                                    <FontSize>8pt</FontSize>
                                    <FontWeight>Bold</FontWeight>
                                  </Style>
                                </TextRun>
                              </TextRuns>
                              <Style />
                            </Paragraph>
                          </Paragraphs>
                          <rd:DefaultName>textbox25</rd:DefaultName>
                          <ZIndex>44</ZIndex>
                          <Style>
                            <PaddingRight>5pt</PaddingRight>
                          </Style>
                        </Textbox>
                      </CellContents>
                    </TablixCell>
                    <TablixCell>
                      <CellContents>
                        <Textbox Name="ItemBaseUOMCaption">
                          <CanGrow>true</CanGrow>
                          <KeepTogether>true</KeepTogether>
                          <Paragraphs>
                            <Paragraph>
                              <TextRuns>
                                <TextRun>
                                  <Value>=Parameters!BaseUOM_ItemCaption.Value + " " + Fields!BaseUOM_Item.Value</Value>
                                  <Style>
                                    <FontFamily>Segoe UI</FontFamily>
                                    <FontSize>8pt</FontSize>
                                  </Style>
                                </TextRun>
                              </TextRuns>
                              <Style />
                            </Paragraph>
                          </Paragraphs>
                          <ZIndex>43</ZIndex>
                          <Style>
                            <Border />
                            <PaddingLeft>5pt</PaddingLeft>
                            <PaddingRight>5pt</PaddingRight>
                          </Style>
                        </Textbox>
                      </CellContents>
                    </TablixCell>
                    <TablixCell>
                      <CellContents>
                        <Textbox Name="textbox27">
                          <KeepTogether>true</KeepTogether>
                          <Paragraphs>
                            <Paragraph>
                              <TextRuns>
                                <TextRun>
                                  <Value />
                                  <Style>
                                    <FontFamily>Segoe UI</FontFamily>
                                    <FontSize>8pt</FontSize>
                                  </Style>
                                </TextRun>
                              </TextRuns>
                              <Style />
                            </Paragraph>
                          </Paragraphs>
                          <rd:DefaultName>textbox27</rd:DefaultName>
                          <ZIndex>42</ZIndex>
                          <Style>
                            <PaddingLeft>5pt</PaddingLeft>
                            <PaddingRight>5pt</PaddingRight>
                          </Style>
                        </Textbox>
                      </CellContents>
                    </TablixCell>
                    <TablixCell>
                      <CellContents>
                        <Textbox Name="textbox28">
                          <KeepTogether>true</KeepTogether>
                          <Paragraphs>
                            <Paragraph>
                              <TextRuns>
                                <TextRun>
                                  <Value />
                                  <Style />
                                </TextRun>
                              </TextRuns>
                              <Style />
                            </Paragraph>
                          </Paragraphs>
                          <rd:DefaultName>textbox28</rd:DefaultName>
                          <ZIndex>41</ZIndex>
                          <Style>
                            <PaddingLeft>5pt</PaddingLeft>
                            <PaddingRight>5pt</PaddingRight>
                          </Style>
                        </Textbox>
                      </CellContents>
                    </TablixCell>
                    <TablixCell>
                      <CellContents>
                        <Textbox Name="textbox29">
                          <KeepTogether>true</KeepTogether>
                          <Paragraphs>
                            <Paragraph>
                              <TextRuns>
                                <TextRun>
                                  <Value />
                                  <Style />
                                </TextRun>
                              </TextRuns>
                              <Style />
                            </Paragraph>
                          </Paragraphs>
                          <rd:DefaultName>textbox29</rd:DefaultName>
                          <ZIndex>40</ZIndex>
                          <Style>
                            <PaddingLeft>5pt</PaddingLeft>
                            <PaddingRight>5pt</PaddingRight>
                          </Style>
                        </Textbox>
                      </CellContents>
                    </TablixCell>
                    <TablixCell>
                      <CellContents>
                        <Textbox Name="textbox30">
                          <KeepTogether>true</KeepTogether>
                          <Paragraphs>
                            <Paragraph>
                              <TextRuns>
                                <TextRun>
                                  <Value />
                                  <Style />
                                </TextRun>
                              </TextRuns>
                              <Style />
                            </Paragraph>
                          </Paragraphs>
                          <rd:DefaultName>textbox30</rd:DefaultName>
                          <ZIndex>39</ZIndex>
                          <Style>
                            <PaddingLeft>5pt</PaddingLeft>
                            <PaddingRight>5pt</PaddingRight>
                          </Style>
                        </Textbox>
                      </CellContents>
                    </TablixCell>
                    <TablixCell>
                      <CellContents>
                        <Textbox Name="textbox31">
                          <KeepTogether>true</KeepTogether>
                          <Paragraphs>
                            <Paragraph>
                              <TextRuns>
                                <TextRun>
                                  <Value />
                                  <Style />
                                </TextRun>
                              </TextRuns>
                              <Style />
                            </Paragraph>
                          </Paragraphs>
                          <rd:DefaultName>textbox31</rd:DefaultName>
                          <ZIndex>38</ZIndex>
                          <Style>
                            <PaddingLeft>5pt</PaddingLeft>
                          </Style>
                        </Textbox>
                      </CellContents>
                    </TablixCell>
                  </TablixCells>
                </TablixRow>
                <TablixRow>
                  <Height>0.13889in</Height>
                  <TablixCells>
                    <TablixCell>
                      <CellContents>
                        <Textbox Name="ProdOrderCompProdOrderNo">
                          <KeepTogether>true</KeepTogether>
                          <Paragraphs>
                            <Paragraph>
                              <TextRuns>
                                <TextRun>
                                  <Value>=Fields!ProdOrdNo_ProdOrderComp.Value</Value>
                                  <Style>
                                    <FontFamily>Segoe UI</FontFamily>
                                    <FontSize>8pt</FontSize>
                                  </Style>
                                </TextRun>
                              </TextRuns>
                              <Style>
                                <TextAlign>Left</TextAlign>
                              </Style>
                            </Paragraph>
                          </Paragraphs>
                          <ZIndex>14</ZIndex>
                          <Style>
                            <BackgroundColor>#efefef</BackgroundColor>
                            <VerticalAlign>Top</VerticalAlign>
                            <PaddingRight>5pt</PaddingRight>
                          </Style>
                        </Textbox>
                      </CellContents>
                    </TablixCell>
                    <TablixCell>
                      <CellContents>
                        <Textbox Name="ProdOrderDesc">
                          <KeepTogether>true</KeepTogether>
                          <Paragraphs>
                            <Paragraph>
                              <TextRuns>
                                <TextRun>
                                  <Value>=Fields!Desc_ProdOrder.Value</Value>
                                  <Style>
                                    <FontFamily>Segoe UI</FontFamily>
                                    <FontSize>8pt</FontSize>
                                  </Style>
                                </TextRun>
                              </TextRuns>
                              <Style />
                            </Paragraph>
                          </Paragraphs>
                          <ZIndex>13</ZIndex>
                          <Style>
                            <BackgroundColor>#efefef</BackgroundColor>
                            <VerticalAlign>Top</VerticalAlign>
                            <PaddingLeft>5pt</PaddingLeft>
                            <PaddingRight>5pt</PaddingRight>
                          </Style>
                        </Textbox>
                      </CellContents>
                    </TablixCell>
                    <TablixCell>
                      <CellContents>
                        <Textbox Name="ProdOrderCompDueDate">
                          <CanGrow>true</CanGrow>
                          <KeepTogether>true</KeepTogether>
                          <Paragraphs>
                            <Paragraph>
                              <TextRuns>
                                <TextRun>
                                  <Value>=Fields!DueDate_ProdOrderComp.Value</Value>
                                  <Style>
                                    <FontFamily>Segoe UI</FontFamily>
                                    <FontSize>8pt</FontSize>
                                    <Format>d</Format>
                                  </Style>
                                </TextRun>
                              </TextRuns>
                              <Style>
                                <TextAlign>Left</TextAlign>
                              </Style>
                            </Paragraph>
                          </Paragraphs>
                          <ZIndex>12</ZIndex>
                          <Style>
                            <BackgroundColor>#efefef</BackgroundColor>
                            <VerticalAlign>Top</VerticalAlign>
                            <PaddingLeft>5pt</PaddingLeft>
                            <PaddingRight>5pt</PaddingRight>
                          </Style>
                        </Textbox>
                      </CellContents>
                    </TablixCell>
                    <TablixCell>
                      <CellContents>
                        <Textbox Name="ProdOrderCompRemainingQty">
                          <CanGrow>true</CanGrow>
                          <KeepTogether>true</KeepTogether>
                          <Paragraphs>
                            <Paragraph>
                              <TextRuns>
                                <TextRun>
                                  <Value>=Fields!RmngQty_ProdOrderComp.Value</Value>
                                  <Style>
                                    <FontFamily>Segoe UI</FontFamily>
                                    <FontSize>8pt</FontSize>
                                    <Format>=Fields!RmngQty_ProdOrderCompFormat.Value</Format>
                                  </Style>
                                </TextRun>
                              </TextRuns>
                              <Style />
                            </Paragraph>
                          </Paragraphs>
                          <ZIndex>11</ZIndex>
                          <Style>
                            <BackgroundColor>#efefef</BackgroundColor>
                            <VerticalAlign>Top</VerticalAlign>
                            <PaddingLeft>5pt</PaddingLeft>
                            <PaddingRight>5pt</PaddingRight>
                          </Style>
                        </Textbox>
                      </CellContents>
                    </TablixCell>
                    <TablixCell>
                      <CellContents>
                        <Textbox Name="ProdOrderCompScrap">
                          <CanGrow>true</CanGrow>
                          <KeepTogether>true</KeepTogether>
                          <Paragraphs>
                            <Paragraph>
                              <TextRuns>
                                <TextRun>
                                  <Value>=Fields!Scrap_ProdOrderComp.Value</Value>
                                  <Style>
                                    <FontFamily>Segoe UI</FontFamily>
                                    <FontSize>8pt</FontSize>
                                    <Format>=Fields!Scrap_ProdOrderCompFormat.Value</Format>
                                  </Style>
                                </TextRun>
                              </TextRuns>
                              <Style />
                            </Paragraph>
                          </Paragraphs>
                          <ZIndex>10</ZIndex>
                          <Style>
                            <BackgroundColor>#efefef</BackgroundColor>
                            <VerticalAlign>Top</VerticalAlign>
                            <PaddingLeft>5pt</PaddingLeft>
                            <PaddingRight>5pt</PaddingRight>
                          </Style>
                        </Textbox>
                      </CellContents>
                    </TablixCell>
                    <TablixCell>
                      <CellContents>
                        <Textbox Name="ProdOrderCompLocationCode">
                          <KeepTogether>true</KeepTogether>
                          <Paragraphs>
                            <Paragraph>
                              <TextRuns>
                                <TextRun>
                                  <Value>=Fields!LoctionCode_ProdOrderComp.Value</Value>
                                  <Style>
                                    <FontFamily>Segoe UI</FontFamily>
                                    <FontSize>8pt</FontSize>
                                  </Style>
                                </TextRun>
                              </TextRuns>
                              <Style />
                            </Paragraph>
                          </Paragraphs>
                          <ZIndex>9</ZIndex>
                          <Style>
                            <BackgroundColor>#efefef</BackgroundColor>
                            <VerticalAlign>Top</VerticalAlign>
                            <PaddingLeft>5pt</PaddingLeft>
                            <PaddingRight>5pt</PaddingRight>
                          </Style>
                        </Textbox>
                      </CellContents>
                    </TablixCell>
                    <TablixCell>
                      <CellContents>
                        <Textbox Name="ProdOrderCompBinCode">
                          <KeepTogether>true</KeepTogether>
                          <Paragraphs>
                            <Paragraph>
                              <TextRuns>
                                <TextRun>
                                  <Value>=Fields!BinCode_ProdOrderComp.Value</Value>
                                  <Style>
                                    <FontFamily>Segoe UI</FontFamily>
                                    <FontSize>8pt</FontSize>
                                  </Style>
                                </TextRun>
                              </TextRuns>
                              <Style />
                            </Paragraph>
                          </Paragraphs>
                          <ZIndex>8</ZIndex>
                          <Style>
                            <BackgroundColor>#efefef</BackgroundColor>
                            <VerticalAlign>Top</VerticalAlign>
                            <PaddingLeft>5pt</PaddingLeft>
                          </Style>
                        </Textbox>
                      </CellContents>
                    </TablixCell>
                  </TablixCells>
                </TablixRow>
                <TablixRow>
                  <Height>0.13889in</Height>
                  <TablixCells>
                    <TablixCell>
                      <CellContents>
                        <Textbox Name="textbox4">
                          <KeepTogether>true</KeepTogether>
                          <Paragraphs>
                            <Paragraph>
                              <TextRuns>
                                <TextRun>
                                  <Value />
                                  <Style />
                                </TextRun>
                              </TextRuns>
                              <Style />
                            </Paragraph>
                          </Paragraphs>
                          <rd:DefaultName>textbox4</rd:DefaultName>
                          <ZIndex>29</ZIndex>
                          <Style>
                            <Border>
                              <Color>#cccccc</Color>
                              <Style>None</Style>
                            </Border>
                            <TopBorder>
                              <Style>Solid</Style>
                            </TopBorder>
                            <PaddingRight>5pt</PaddingRight>
                          </Style>
                        </Textbox>
                      </CellContents>
                    </TablixCell>
                    <TablixCell>
                      <CellContents>
                        <Textbox Name="ItemDescCtrl23">
                          <KeepTogether>true</KeepTogether>
                          <Paragraphs>
                            <Paragraph>
                              <TextRuns>
                                <TextRun>
                                  <Value>=First(Fields!Description_Item.Value)</Value>
                                  <Style>
                                    <FontFamily>Segoe UI</FontFamily>
                                    <FontSize>8pt</FontSize>
                                    <FontWeight>Bold</FontWeight>
                                  </Style>
                                </TextRun>
                              </TextRuns>
                              <Style />
                            </Paragraph>
                          </Paragraphs>
                          <ZIndex>28</ZIndex>
                          <Style>
                            <Border>
                              <Color>#cccccc</Color>
                              <Style>None</Style>
                            </Border>
                            <TopBorder>
                              <Style>Solid</Style>
                            </TopBorder>
                            <VerticalAlign>Top</VerticalAlign>
                            <PaddingLeft>5pt</PaddingLeft>
                            <PaddingRight>5pt</PaddingRight>
                          </Style>
                        </Textbox>
                      </CellContents>
                    </TablixCell>
                    <TablixCell>
                      <CellContents>
                        <Textbox Name="textbox7">
                          <KeepTogether>true</KeepTogether>
                          <Paragraphs>
                            <Paragraph>
                              <TextRuns>
                                <TextRun>
                                  <Value />
                                  <Style />
                                </TextRun>
                              </TextRuns>
                              <Style />
                            </Paragraph>
                          </Paragraphs>
                          <rd:DefaultName>textbox7</rd:DefaultName>
                          <ZIndex>27</ZIndex>
                          <Style>
                            <Border>
                              <Color>#cccccc</Color>
                              <Style>None</Style>
                            </Border>
                            <TopBorder>
                              <Style>Solid</Style>
                            </TopBorder>
                            <PaddingLeft>5pt</PaddingLeft>
                            <PaddingRight>5pt</PaddingRight>
                          </Style>
                        </Textbox>
                      </CellContents>
                    </TablixCell>
                    <TablixCell>
                      <CellContents>
                        <Textbox Name="ProdOrderCompRemainingQty1">
                          <CanGrow>true</CanGrow>
                          <KeepTogether>true</KeepTogether>
                          <Paragraphs>
                            <Paragraph>
                              <TextRuns>
                                <TextRun>
                                  <Value>=Sum(Fields!RmngQty_ProdOrderComp.Value)</Value>
                                  <Style>
                                    <FontFamily>Segoe UI</FontFamily>
                                    <FontSize>8pt</FontSize>
                                    <FontWeight>Bold</FontWeight>
                                    <Format>=First(Fields!RmngQty_ProdOrderCompFormat.Value)</Format>
                                  </Style>
                                </TextRun>
                              </TextRuns>
                              <Style />
                            </Paragraph>
                          </Paragraphs>
                          <ZIndex>26</ZIndex>
                          <Style>
                            <Border>
                              <Color>#cccccc</Color>
                              <Style>None</Style>
                            </Border>
                            <TopBorder>
                              <Style>Solid</Style>
                            </TopBorder>
                            <VerticalAlign>Top</VerticalAlign>
                            <PaddingLeft>5pt</PaddingLeft>
                            <PaddingRight>5pt</PaddingRight>
                          </Style>
                        </Textbox>
                      </CellContents>
                    </TablixCell>
                    <TablixCell>
                      <CellContents>
                        <Textbox Name="textbox9">
                          <KeepTogether>true</KeepTogether>
                          <Paragraphs>
                            <Paragraph>
                              <TextRuns>
                                <TextRun>
                                  <Value />
                                  <Style />
                                </TextRun>
                              </TextRuns>
                              <Style />
                            </Paragraph>
                          </Paragraphs>
                          <rd:DefaultName>textbox9</rd:DefaultName>
                          <ZIndex>25</ZIndex>
                          <Style>
                            <Border>
                              <Color>#cccccc</Color>
                              <Style>None</Style>
                            </Border>
                            <TopBorder>
                              <Style>Solid</Style>
                            </TopBorder>
                            <PaddingLeft>5pt</PaddingLeft>
                            <PaddingRight>5pt</PaddingRight>
                          </Style>
                        </Textbox>
                      </CellContents>
                    </TablixCell>
                    <TablixCell>
                      <CellContents>
                        <Textbox Name="textbox10">
                          <KeepTogether>true</KeepTogether>
                          <Paragraphs>
                            <Paragraph>
                              <TextRuns>
                                <TextRun>
                                  <Value />
                                  <Style />
                                </TextRun>
                              </TextRuns>
                              <Style />
                            </Paragraph>
                          </Paragraphs>
                          <rd:DefaultName>textbox10</rd:DefaultName>
                          <ZIndex>24</ZIndex>
                          <Style>
                            <Border>
                              <Color>#cccccc</Color>
                              <Style>None</Style>
                            </Border>
                            <TopBorder>
                              <Style>Solid</Style>
                            </TopBorder>
                            <PaddingLeft>5pt</PaddingLeft>
                            <PaddingRight>5pt</PaddingRight>
                          </Style>
                        </Textbox>
                      </CellContents>
                    </TablixCell>
                    <TablixCell>
                      <CellContents>
                        <Textbox Name="textbox20">
                          <KeepTogether>true</KeepTogether>
                          <Paragraphs>
                            <Paragraph>
                              <TextRuns>
                                <TextRun>
                                  <Value />
                                  <Style />
                                </TextRun>
                              </TextRuns>
                              <Style />
                            </Paragraph>
                          </Paragraphs>
                          <rd:DefaultName>textbox20</rd:DefaultName>
                          <ZIndex>23</ZIndex>
                          <Style>
                            <Border>
                              <Color>#cccccc</Color>
                              <Style>None</Style>
                            </Border>
                            <TopBorder>
                              <Style>Solid</Style>
                            </TopBorder>
                            <PaddingLeft>5pt</PaddingLeft>
                          </Style>
                        </Textbox>
                      </CellContents>
                    </TablixCell>
                  </TablixCells>
                </TablixRow>
                <TablixRow>
                  <Height>0.13889in</Height>
                  <TablixCells>
                    <TablixCell>
                      <CellContents>
                        <Textbox Name="Textbox46">
                          <CanGrow>true</CanGrow>
                          <KeepTogether>true</KeepTogether>
                          <Paragraphs>
                            <Paragraph>
                              <TextRuns>
                                <TextRun>
                                  <Value />
                                  <Style />
                                </TextRun>
                              </TextRuns>
                              <Style />
                            </Paragraph>
                          </Paragraphs>
                          <rd:DefaultName>Textbox46</rd:DefaultName>
                          <Style>
                            <Border>
                              <Style>None</Style>
                            </Border>
                            <PaddingRight>5pt</PaddingRight>
                          </Style>
                        </Textbox>
                      </CellContents>
                    </TablixCell>
                    <TablixCell>
                      <CellContents>
                        <Textbox Name="Textbox47">
                          <CanGrow>true</CanGrow>
                          <KeepTogether>true</KeepTogether>
                          <Paragraphs>
                            <Paragraph>
                              <TextRuns>
                                <TextRun>
                                  <Value />
                                  <Style>
                                    <FontFamily>Segoe UI</FontFamily>
                                    <FontSize>8pt</FontSize>
                                    <FontWeight>Bold</FontWeight>
                                  </Style>
                                </TextRun>
                              </TextRuns>
                              <Style />
                            </Paragraph>
                          </Paragraphs>
                          <rd:DefaultName>Textbox47</rd:DefaultName>
                          <Style>
                            <Border>
                              <Style>None</Style>
                            </Border>
                            <VerticalAlign>Top</VerticalAlign>
                            <PaddingLeft>5pt</PaddingLeft>
                            <PaddingRight>5pt</PaddingRight>
                          </Style>
                        </Textbox>
                      </CellContents>
                    </TablixCell>
                    <TablixCell>
                      <CellContents>
                        <Textbox Name="Textbox48">
                          <CanGrow>true</CanGrow>
                          <KeepTogether>true</KeepTogether>
                          <Paragraphs>
                            <Paragraph>
                              <TextRuns>
                                <TextRun>
                                  <Value />
                                  <Style />
                                </TextRun>
                              </TextRuns>
                              <Style />
                            </Paragraph>
                          </Paragraphs>
                          <rd:DefaultName>Textbox48</rd:DefaultName>
                          <Style>
                            <Border>
                              <Style>None</Style>
                            </Border>
                            <PaddingLeft>5pt</PaddingLeft>
                            <PaddingRight>5pt</PaddingRight>
                          </Style>
                        </Textbox>
                      </CellContents>
                    </TablixCell>
                    <TablixCell>
                      <CellContents>
                        <Textbox Name="Textbox49">
                          <CanGrow>true</CanGrow>
                          <KeepTogether>true</KeepTogether>
                          <Paragraphs>
                            <Paragraph>
                              <TextRuns>
                                <TextRun>
                                  <Value />
                                  <Style>
                                    <FontFamily>Segoe UI</FontFamily>
                                    <FontSize>8pt</FontSize>
                                    <FontWeight>Bold</FontWeight>
                                  </Style>
                                </TextRun>
                              </TextRuns>
                              <Style />
                            </Paragraph>
                          </Paragraphs>
                          <rd:DefaultName>Textbox49</rd:DefaultName>
                          <Style>
                            <Border>
                              <Style>None</Style>
                            </Border>
                            <VerticalAlign>Top</VerticalAlign>
                            <PaddingLeft>5pt</PaddingLeft>
                            <PaddingRight>5pt</PaddingRight>
                          </Style>
                        </Textbox>
                      </CellContents>
                    </TablixCell>
                    <TablixCell>
                      <CellContents>
                        <Textbox Name="Textbox50">
                          <CanGrow>true</CanGrow>
                          <KeepTogether>true</KeepTogether>
                          <Paragraphs>
                            <Paragraph>
                              <TextRuns>
                                <TextRun>
                                  <Value />
                                  <Style />
                                </TextRun>
                              </TextRuns>
                              <Style />
                            </Paragraph>
                          </Paragraphs>
                          <rd:DefaultName>Textbox50</rd:DefaultName>
                          <Style>
                            <Border>
                              <Style>None</Style>
                            </Border>
                            <PaddingLeft>5pt</PaddingLeft>
                            <PaddingRight>5pt</PaddingRight>
                          </Style>
                        </Textbox>
                      </CellContents>
                    </TablixCell>
                    <TablixCell>
                      <CellContents>
                        <Textbox Name="Textbox51">
                          <CanGrow>true</CanGrow>
                          <KeepTogether>true</KeepTogether>
                          <Paragraphs>
                            <Paragraph>
                              <TextRuns>
                                <TextRun>
                                  <Value />
                                  <Style />
                                </TextRun>
                              </TextRuns>
                              <Style />
                            </Paragraph>
                          </Paragraphs>
                          <rd:DefaultName>Textbox51</rd:DefaultName>
                          <Style>
                            <Border>
                              <Style>None</Style>
                            </Border>
                            <PaddingLeft>5pt</PaddingLeft>
                            <PaddingRight>5pt</PaddingRight>
                          </Style>
                        </Textbox>
                      </CellContents>
                    </TablixCell>
                    <TablixCell>
                      <CellContents>
                        <Textbox Name="Textbox52">
                          <CanGrow>true</CanGrow>
                          <KeepTogether>true</KeepTogether>
                          <Paragraphs>
                            <Paragraph>
                              <TextRuns>
                                <TextRun>
                                  <Value />
                                  <Style />
                                </TextRun>
                              </TextRuns>
                              <Style />
                            </Paragraph>
                          </Paragraphs>
                          <rd:DefaultName>Textbox52</rd:DefaultName>
                          <Style>
                            <Border>
                              <Style>None</Style>
                            </Border>
                            <PaddingLeft>5pt</PaddingLeft>
                          </Style>
                        </Textbox>
                      </CellContents>
                    </TablixCell>
                  </TablixCells>
                </TablixRow>
              </TablixRows>
            </TablixBody>
            <TablixColumnHierarchy>
              <TablixMembers>
                <TablixMember />
                <TablixMember />
                <TablixMember />
                <TablixMember />
                <TablixMember />
                <TablixMember />
                <TablixMember />
              </TablixMembers>
            </TablixColumnHierarchy>
            <TablixRowHierarchy>
              <TablixMembers>
                <TablixMember>
                  <KeepWithGroup>After</KeepWithGroup>
                  <RepeatOnNewPage>true</RepeatOnNewPage>
                  <KeepTogether>true</KeepTogether>
                </TablixMember>
                <TablixMember>
                  <KeepWithGroup>After</KeepWithGroup>
                  <RepeatOnNewPage>true</RepeatOnNewPage>
                </TablixMember>
                <TablixMember>
                  <KeepWithGroup>After</KeepWithGroup>
                  <RepeatOnNewPage>true</RepeatOnNewPage>
                </TablixMember>
                <TablixMember>
                  <Group Name="Table1_Group1">
                    <GroupExpressions>
                      <GroupExpression>=Fields!No_Item.Value</GroupExpression>
                    </GroupExpressions>
                  </Group>
                  <TablixMembers>
                    <TablixMember>
                      <KeepWithGroup>After</KeepWithGroup>
                      <KeepTogether>true</KeepTogether>
                    </TablixMember>
                    <TablixMember>
                      <KeepWithGroup>After</KeepWithGroup>
                      <KeepTogether>true</KeepTogether>
                    </TablixMember>
                    <TablixMember>
                      <Group Name="Table1_Details_Group">
                        <DataElementName>Detail</DataElementName>
                      </Group>
                      <TablixMembers>
                        <TablixMember />
                      </TablixMembers>
                      <DataElementName>Detail_Collection</DataElementName>
                      <DataElementOutput>Output</DataElementOutput>
                      <KeepTogether>true</KeepTogether>
                    </TablixMember>
                    <TablixMember>
                      <KeepWithGroup>Before</KeepWithGroup>
                      <KeepTogether>true</KeepTogether>
                    </TablixMember>
                    <TablixMember>
                      <KeepWithGroup>Before</KeepWithGroup>
                    </TablixMember>
                  </TablixMembers>
                </TablixMember>
              </TablixMembers>
            </TablixRowHierarchy>
            <DataSetName>DataSet_Result</DataSetName>
            <Height>2.46944cm</Height>
            <Width>6.97615in</Width>
            <Style />
          </Tablix>
        </ReportItems>
        <Height>2.46944cm</Height>
        <Style />
      </Body>
      <Width>17.71945cm</Width>
      <Page>
        <PageHeader>
          <Height>2.64267cm</Height>
          <PrintOnFirstPage>true</PrintOnFirstPage>
          <PrintOnLastPage>true</PrintOnLastPage>
          <ReportItems>
            <Textbox Name="Text000ComponentFilter">
              <KeepTogether>true</KeepTogether>
              <Paragraphs>
                <Paragraph>
                  <TextRuns>
                    <TextRun>
                      <Value>=First(Fields!CompneedCompFilter.Value, "DataSet_Result")</Value>
                      <Style>
                        <FontFamily>Segoe UI</FontFamily>
                        <FontSize>8pt</FontSize>
                      </Style>
                    </TextRun>
                  </TextRuns>
                  <Style />
                </Paragraph>
              </Paragraphs>
              <Top>2.17029cm</Top>
              <Height>0.16in</Height>
              <Width>17.71944cm</Width>
              <Visibility>
                <Hidden>= IIF((First(Fields!ComponentFilter.Value, "DataSet_Result") = "") or(Globals!PageNumber &lt;&gt; 1),True,False)</Hidden>
              </Visibility>
              <DataElementOutput>NoOutput</DataElementOutput>
              <Style>
                <VerticalAlign>Middle</VerticalAlign>
              </Style>
            </Textbox>
            <Textbox Name="ItemTABLECAPTIONFilter">
              <KeepTogether>true</KeepTogether>
              <Paragraphs>
                <Paragraph>
                  <TextRuns>
                    <TextRun>
                      <Value>=First(Fields!ItemTableCaptionFilter.Value, "DataSet_Result")</Value>
                      <Style>
                        <FontFamily>Segoe UI</FontFamily>
                        <FontSize>8pt</FontSize>
                      </Style>
                    </TextRun>
                  </TextRuns>
                  <Style />
                </Paragraph>
              </Paragraphs>
              <Top>1.76389cm</Top>
              <Left>0.01326in</Left>
              <Height>0.16in</Height>
              <Width>17.68575cm</Width>
              <ZIndex>1</ZIndex>
              <Visibility>
                <Hidden>=IIF(First(Fields!ItemFilter.Value, "DataSet_Result")= "" or(Globals!PageNumber &lt;&gt; 1),True,False)</Hidden>
              </Visibility>
              <DataElementOutput>NoOutput</DataElementOutput>
              <Style>
                <Border />
                <VerticalAlign>Middle</VerticalAlign>
              </Style>
            </Textbox>
            <Textbox Name="ProdOrderPickingListCapt">
              <KeepTogether>true</KeepTogether>
              <Paragraphs>
                <Paragraph>
                  <TextRuns>
                    <TextRun>
                      <Value>=First(Fields!ProdOrderPickingListCapt.Value, "DataSet_Result")</Value>
                      <Style>
                        <FontFamily>Segoe UI</FontFamily>
                        <FontSize>14pt</FontSize>
                        <FontWeight>Bold</FontWeight>
                      </Style>
                    </TextRun>
                  </TextRuns>
                  <Style />
                </Paragraph>
              </Paragraphs>
              <Height>20pt</Height>
              <Width>13.24442cm</Width>
              <ZIndex>2</ZIndex>
              <Style>
                <VerticalAlign>Middle</VerticalAlign>
              </Style>
            </Textbox>
            <Textbox Name="COMPANYNAME">
              <KeepTogether>true</KeepTogether>
              <Paragraphs>
                <Paragraph>
                  <TextRuns>
                    <TextRun>
                      <Value>=First(Fields!CompanyName.Value, "DataSet_Result")</Value>
                      <Style>
                        <FontFamily>Segoe UI</FontFamily>
                        <FontSize>8pt</FontSize>
                      </Style>
                    </TextRun>
                  </TextRuns>
                  <Style />
                </Paragraph>
              </Paragraphs>
              <Top>0.70556cm</Top>
              <Height>11pt</Height>
              <Width>13.24442cm</Width>
              <ZIndex>3</ZIndex>
              <Style>
                <VerticalAlign>Middle</VerticalAlign>
              </Style>
            </Textbox>
            <Textbox Name="ExecutionTimeTextBox">
              <KeepTogether>true</KeepTogether>
              <Paragraphs>
                <Paragraph>
                  <TextRuns>
                    <TextRun>
                      <Value>=First(Fields!TodayFormatted.Value, "DataSet_Result")</Value>
                      <Style>
                        <FontFamily>Segoe UI</FontFamily>
                        <FontSize>8pt</FontSize>
                        <Format>g</Format>
                      </Style>
                    </TextRun>
                  </TextRuns>
                  <Style>
                    <TextAlign>Right</TextAlign>
                  </Style>
                </Paragraph>
              </Paragraphs>
              <Left>13.24442cm</Left>
              <Height>11pt</Height>
              <Width>4.42933cm</Width>
              <ZIndex>4</ZIndex>
              <Style>
                <VerticalAlign>Middle</VerticalAlign>
              </Style>
            </Textbox>
            <Textbox Name="UserIdTextBox">
              <CanGrow>true</CanGrow>
              <KeepTogether>true</KeepTogether>
              <Paragraphs>
                <Paragraph>
                  <TextRuns>
                    <TextRun>
                      <Value>=User!UserID</Value>
                      <Style>
                        <FontFamily>Segoe UI</FontFamily>
                        <FontSize>8pt</FontSize>
                      </Style>
                    </TextRun>
                  </TextRuns>
                  <Style>
                    <TextAlign>Right</TextAlign>
                  </Style>
                </Paragraph>
              </Paragraphs>
              <Top>0.70556cm</Top>
              <Left>13.24442cm</Left>
              <Height>11pt</Height>
              <Width>4.42933cm</Width>
              <ZIndex>5</ZIndex>
              <Visibility>
                <Hidden>= IIF(First(Fields!CompanyName.Value, "DataSet_Result") = "",True,False)</Hidden>
              </Visibility>
              <DataElementOutput>NoOutput</DataElementOutput>
              <Style>
                <VerticalAlign>Middle</VerticalAlign>
              </Style>
            </Textbox>
            <Textbox Name="PageNumberTextBox">
              <KeepTogether>true</KeepTogether>
              <Paragraphs>
                <Paragraph>
                  <TextRuns>
                    <TextRun>
                      <Value>=First(Fields!CurrReportPageNoCapt.Value, "DataSet_Result") &amp; " " &amp; Globals!PageNumber</Value>
                      <Style>
                        <FontFamily>Segoe UI</FontFamily>
                        <FontSize>8pt</FontSize>
                      </Style>
                    </TextRun>
                  </TextRuns>
                  <Style>
                    <TextAlign>Right</TextAlign>
                  </Style>
                </Paragraph>
              </Paragraphs>
              <Top>0.35278cm</Top>
              <Left>13.24442cm</Left>
              <Height>11pt</Height>
              <Width>4.42933cm</Width>
              <ZIndex>6</ZIndex>
              <Visibility>
                <Hidden>= IIF(First(Fields!CompanyName.Value, "DataSet_Result") = "",True,False)</Hidden>
              </Visibility>
              <DataElementOutput>NoOutput</DataElementOutput>
              <Style>
                <VerticalAlign>Middle</VerticalAlign>
              </Style>
            </Textbox>
          </ReportItems>
          <Style />
        </PageHeader>
        <PageHeight>29.7cm</PageHeight>
        <PageWidth>21cm</PageWidth>
        <InteractiveHeight>11in</InteractiveHeight>
        <InteractiveWidth>8.5in</InteractiveWidth>
        <LeftMargin>1.76388cm</LeftMargin>
        <RightMargin>1.05834cm</RightMargin>
        <TopMargin>1.05834cm</TopMargin>
        <BottomMargin>1.48166cm</BottomMargin>
        <ColumnSpacing>1.27cm</ColumnSpacing>
        <Style />
      </Page>
    </ReportSection>
  </ReportSections>
  <ReportParameters>
    <ReportParameter Name="BaseUOM_ItemCaption">
      <DataType>String</DataType>
      <DefaultValue>
        <Values>
          <Value>BaseUOM_ItemCaption</Value>
        </Values>
      </DefaultValue>
      <Prompt>BaseUOM_ItemCaption</Prompt>
    </ReportParameter>
    <ReportParameter Name="ProdOrdNo_ProdOrderCompCaption">
      <DataType>String</DataType>
      <DefaultValue>
        <Values>
          <Value>ProdOrdNo_ProdOrderCompCaption</Value>
        </Values>
      </DefaultValue>
      <Prompt>ProdOrdNo_ProdOrderCompCaption</Prompt>
    </ReportParameter>
    <ReportParameter Name="RmngQty_ProdOrderCompCaption">
      <DataType>String</DataType>
      <DefaultValue>
        <Values>
          <Value>RmngQty_ProdOrderCompCaption</Value>
        </Values>
      </DefaultValue>
      <Prompt>RmngQty_ProdOrderCompCaption</Prompt>
    </ReportParameter>
    <ReportParameter Name="Scrap_ProdOrderCompCaption">
      <DataType>String</DataType>
      <DefaultValue>
        <Values>
          <Value>Scrap_ProdOrderCompCaption</Value>
        </Values>
      </DefaultValue>
      <Prompt>Scrap_ProdOrderCompCaption</Prompt>
    </ReportParameter>
    <ReportParameter Name="LoctionCode_ProdOrderCompCaption">
      <DataType>String</DataType>
      <DefaultValue>
        <Values>
          <Value>LoctionCode_ProdOrderCompCaption</Value>
        </Values>
      </DefaultValue>
      <Prompt>LoctionCode_ProdOrderCompCaption</Prompt>
    </ReportParameter>
    <ReportParameter Name="BinCode_ProdOrderCompCaption">
      <DataType>String</DataType>
      <DefaultValue>
        <Values>
          <Value>BinCode_ProdOrderCompCaption</Value>
        </Values>
      </DefaultValue>
      <Prompt>BinCode_ProdOrderCompCaption</Prompt>
    </ReportParameter>
  </ReportParameters>
  <Code>Public Function BlankZero(ByVal Value As Decimal)
    if Value = 0 then
        Return ""
    end if
    Return Value
End Function

Public Function BlankPos(ByVal Value As Decimal)
    if Value &gt; 0 then
        Return ""
    end if
    Return Value
End Function

Public Function BlankZeroAndPos(ByVal Value As Decimal)
    if Value &gt;= 0 then
        Return ""
    end if
    Return Value
End Function

Public Function BlankNeg(ByVal Value As Decimal)
    if Value &lt; 0 then
        Return ""
    end if
    Return Value
End Function

Public Function BlankNegAndZero(ByVal Value As Decimal)
    if Value &lt;= 0 then
        Return ""
    end if
    Return Value
End Function
</Code>
  <Language>=User!Language</Language>
  <ConsumeContainerWhitespace>true</ConsumeContainerWhitespace>
  <rd:ReportUnitType>Cm</rd:ReportUnitType>
  <rd:ReportID>6901993e-f150-4819-b558-9abadb2ca922</rd:ReportID>
</Report>
    END_OF_RDLDATA
  }
}

