OBJECT Table 132 Incoming Document Approver
{
  OBJECT-PROPERTIES
  {
    Date=07/09/12;
    Time=12:00:00;
    Version List=NAVW17.10;
  }
  PROPERTIES
  {
    CaptionML=[ENU=Incoming Document Approver;
               PTG=Aprovador Documento Recebido];
  }
  FIELDS
  {
    { 1   ;   ;User ID             ;GUID          ;CaptionML=[ENU=User ID;
                                                              PTG=ID Utilizador] }
  }
  KEYS
  {
    {    ;User ID                                 ;Clustered=Yes }
  }
  FIELDGROUPS
  {
  }
  CODE
  {

    PROCEDURE SetIsApprover@1(VAR User@1003 : Record 2000000120;IsApprover@1000 : Boolean);
    VAR
      IncomingDocumentApprover@1001 : Record 132;
      WasApprover@1002 : Boolean;
    BEGIN
      IncomingDocumentApprover.LOCKTABLE;
      WasApprover := IncomingDocumentApprover.GET(User."User Security ID");
      IF WasApprover AND NOT IsApprover THEN
        IncomingDocumentApprover.DELETE;
      IF NOT WasApprover AND IsApprover THEN BEGIN
        IncomingDocumentApprover."User ID" := User."User Security ID";
        IncomingDocumentApprover.INSERT;
      END;
    END;

    BEGIN
    END.
  }
}

